<?xml version="1.0" encoding="UTF-8" standalone="no"?>
<svg
   xmlns:dc="http://purl.org/dc/elements/1.1/"
   xmlns:cc="http://creativecommons.org/ns#"
   xmlns:rdf="http://www.w3.org/1999/02/22-rdf-syntax-ns#"
   xmlns:svg="http://www.w3.org/2000/svg"
   xmlns="http://www.w3.org/2000/svg"
   xmlns:sodipodi="http://sodipodi.sourceforge.net/DTD/sodipodi-0.dtd"
   xmlns:inkscape="http://www.inkscape.org/namespaces/inkscape"
   version="1.1"
   overflow="visible"
   viewBox="0 0 75 75"
   x="0px"
   y="0px"
   id="svg901"
   sodipodi:docname="logo.svg"
   width="75"
   height="75"
   style="overflow:visible;fill-rule:evenodd;stroke-width:0.50099999;stroke-linejoin:bevel"
   inkscape:version="0.92.3 (d244b95, 2018-08-02)">
  <metadata
     id="metadata907">
    <rdf:RDF>
      <cc:Work
         rdf:about="">
        <dc:format>image/svg+xml</dc:format>
        <dc:type
           rdf:resource="http://purl.org/dc/dcmitype/StillImage" />
        <dc:title></dc:title>
      </cc:Work>
    </rdf:RDF>
  </metadata>
  <defs
     id="defs905" />
  <sodipodi:namedview
     pagecolor="#ffffff"
     bordercolor="#666666"
     borderopacity="1"
     objecttolerance="10"
     gridtolerance="10"
     guidetolerance="10"
     inkscape:pageopacity="0"
     inkscape:pageshadow="2"
     inkscape:window-width="1920"
     inkscape:window-height="972"
     id="namedview903"
     showgrid="false"
     inkscape:zoom="4.192"
     inkscape:cx="-6.8724288"
     inkscape:cy="12.104709"
     inkscape:window-x="0"
     inkscape:window-y="27"
     inkscape:window-maximized="1"
     inkscape:current-layer="svg901" />
  <path
     style="fill:#ffffff;fill-opacity:1;stroke:none;stroke-width:1px;stroke-linecap:butt;stroke-linejoin:miter;stroke-opacity:1"
     d="m 34.799365,2.7967408 -3.169922,1.1855469 -1.728516,8.4804683 -5.826172,3.384766 -6.722656,-5.9257808 -5.224609,3.3730458 -3.1132818,4.890626 -0.232421,0.621093 6.9472648,7.03711 -2.789062,5.242187 -9.4042968,1.046875 -1.792969,7.626953 1.476562,3.789063 11.1562508,1.433593 1.541015,7.306641 -6.6835938,6.744141 9.3652348,8.177734 7.294922,-6.28125 5.773437,2.314453 0.410156,8.900391 12.457032,0.396484 1.123047,-9.089844 5.15625,-1.958984 7.064453,4.669922 L 67.02788,58.7401 60.768115,52.232287 62.59624,45.660022 74.24663,44.27135 73.297411,32.560413 62.68413,31.747913 61.344287,25.128772 66.057177,18.853381 58.447802,9.7264283 50.80913,15.310413 45.006396,12.984241 43.805224,4.1815064 44.654833,3.5467408 Z m 2.175781,18.0527342 a 16.937023,16.340649 0 0 1 16.9375,16.339844 16.937023,16.340649 0 0 1 -16.9375,16.341797 16.937023,16.340649 0 0 1 -16.9375,-16.341797 16.937023,16.340649 0 0 1 16.9375,-16.339844 z"
     id="path978"
     inkscape:connector-curvature="0" />
  <ellipse
     style="fill:#ffffff;fill-opacity:1;stroke:none;stroke-width:1.98426104;stroke-miterlimit:4;stroke-dasharray:none;stroke-opacity:1"
     id="path1019"
     cx="37.452286"
     cy="37.666981"
     rx="6.3215647"
     ry="6.2022901" />
  <g
     font-size="16"
     transform="matrix(1,0,0,-1,0.08128724,0.23777219)"
     id="g895"
     style="font-size:16px;font-family:'Times New Roman';overflow:visible;fill:none;fill-rule:evenodd;stroke:#000000;stroke-width:0.50099999;stroke-linejoin:bevel">
    <g
       transform="translate(0,-75)"
       id="g893">
      <g
         id="g891">
        <path
           d="M 41.116,1.88 C 40.41,1.85 39.706,1.828 38.994,1.827 36.85,1.822 34.646,1.86 32.538,2.286 32.037,2.387 31.57,2.525 31.107,2.736 30.958,2.804 30.669,2.992 30.582,3.131 30.551,3.181 30.517,3.226 30.492,3.282 30.394,3.5 30.338,3.82 30.301,4.121 30.222,4.194 30.174,4.3 30.179,4.416 c 0.005,0.258 0.017,0.516 0.024,0.774 -0.004,0.055 -0.008,0.109 -0.01,0.164 -0.007,0.128 -0.024,0.262 -0.023,0.39 0.002,0.556 0,1.114 0.013,1.692 -0.008,0.353 -0.019,0.728 -0.032,1.103 -0.027,0.735 -0.041,1.465 -0.053,2.2 -0.004,0.225 -0.005,0.452 -0.003,0.679 -0.041,0.015 -0.081,0.032 -0.119,0.051 -0.131,0.06 -0.256,0.123 -0.378,0.189 l -0.048,0.027 -0.084,0.037 c -0.123,0.055 -0.243,0.111 -0.365,0.169 -0.062,0.018 -0.124,0.037 -0.184,0.056 -0.764,0.237 -1.484,0.563 -2.204,0.912 -0.262,0.126 -0.521,0.26 -0.78,0.394 -0.029,-0.064 -0.076,-0.12 -0.14,-0.158 C 24.83,12.434 24.016,11.662 23.211,10.813 22.557,10.123 21.914,9.421 21.198,8.794 20.872,8.508 20.548,8.238 20.185,8.001 19.475,7.537 18.24,6.895 17.369,7.224 c -0.173,0.065 -0.313,0.115 -0.48,0.2 -0.557,0.283 -1.133,0.803 -1.583,1.225 -0.261,0.245 -0.554,0.515 -0.842,0.721 -0.05,0.027 -0.099,0.077 -0.148,0.108 -0.179,0.113 -0.388,0.319 -0.548,0.46 -0.355,0.315 -0.699,0.665 -1.022,1.013 -0.392,0.423 -0.752,0.854 -1.123,1.294 -0.092,0.108 -0.175,0.226 -0.265,0.336 -0.064,0.077 -0.129,0.159 -0.193,0.243 -0.057,0.047 -0.114,0.094 -0.169,0.141 C 9.948,13.848 8.773,14.884 8.591,16.327 8.584,16.379 8.578,16.433 8.574,16.488 8.439,16.427 8.3,16.37 8.166,16.309 8.033,16.25 7.876,16.311 7.817,16.444 c -0.059,0.133 0.002,0.29 0.135,0.349 0.074,0.03 0.147,0.062 0.22,0.095 0.04,0.022 0.081,0.046 0.121,0.069 -0.047,0.058 -0.094,0.116 -0.14,0.175 -0.093,0.113 -0.076,0.282 0.037,0.375 0.113,0.093 0.282,0.076 0.375,-0.037 0.023,-0.03 0.047,-0.06 0.071,-0.09 0.008,0.043 0.017,0.086 0.027,0.131 0.165,0.764 0.685,1.67 1.146,2.295 0.176,0.239 0.355,0.499 0.549,0.723 0.137,0.157 0.267,0.324 0.402,0.484 0.136,0.161 0.293,0.316 0.423,0.48 0.412,0.46 0.847,0.879 1.3,1.297 0.125,0.115 0.255,0.225 0.383,0.336 0.07,0.06 0.145,0.135 0.221,0.185 0.269,0.176 0.546,0.34 0.816,0.514 0.144,0.093 0.319,0.193 0.452,0.298 0.049,0.034 0.107,0.05 0.163,0.047 -0.19,0.276 -0.38,0.566 -0.537,0.86 -0.231,0.433 -0.395,0.894 -0.554,1.357 -0.177,0.517 -0.324,1.087 -0.414,1.626 -0.088,0.526 -0.155,1.023 -0.194,1.534 -0.457,-0.014 -0.903,-0.018 -1.35,0 0.026,-0.023 0.048,-0.049 0.065,-0.079 0.015,-0.027 0.037,-0.069 0.048,-0.097 0.059,-0.153 -0.055,-0.394 -0.204,-0.457 C 11.289,28.877 11.157,28.863 11.059,28.849 10.937,28.831 10.804,28.803 10.682,28.798 10.457,28.788 10.235,28.797 10.013,28.79 9.858,28.785 9.702,28.773 9.547,28.777 9.35,28.782 9.154,28.808 8.958,28.832 8.415,28.897 7.89,29.011 7.385,29.169 L 7.107,29.271 6.795,29.276 C 6.233,29.274 5.671,29.263 5.118,29.254 4.636,29.246 4.145,29.227 3.664,29.231 3.501,29.232 3.102,29.203 2.966,29.264 2.898,29.294 2.834,29.343 2.797,29.409 2.762,29.47 2.745,29.528 2.72,29.591 2.686,29.676 2.644,29.761 2.608,29.846 2.514,30.069 2.388,30.283 2.28,30.501 2.169,30.724 2.054,30.946 1.941,31.169 1.9,31.197 1.867,31.23 1.836,31.272 1.782,31.342 1.669,31.618 1.651,31.71 1.645,31.735 1.64,31.761 1.634,31.787 c -0.206,0.432 -0.39,0.875 -0.506,1.335 -0.106,0.416 -0.112,1.001 -0.105,1.435 0.007,0.402 0.029,0.801 0.061,1.2 0,0.001 0,0.003 0,0.005 -0.017,0.208 -0.024,0.43 -0.029,0.639 -0.004,0.189 -0.018,0.379 -0.02,0.568 -0.005,0.442 -0.006,0.883 -0.003,1.325 0.006,0.723 0.054,1.435 0.121,2.155 0.032,0.35 0.08,0.742 0.148,1.087 0.03,0.151 0.058,0.303 0.089,0.454 0.022,0.108 0.056,0.215 0.077,0.323 0.038,0.193 0.118,0.432 0.187,0.618 0.207,0.558 0.469,1.092 0.968,1.441 0.124,0.087 0.44,0.226 0.59,0.221 0.446,0.04 0.888,0.089 1.338,0.097 0.994,0.018 1.965,-0.044 2.956,-0.118 0.395,-0.029 0.791,-0.058 1.185,-0.095 0.45,-0.043 0.902,-0.082 1.354,-0.115 0.08,0.004 0.16,0.009 0.24,0.014 0.661,0.039 1.33,0.05 1.996,0.059 0.018,0.104 0.039,0.209 0.063,0.323 0.015,0.075 0.063,0.158 0.085,0.241 0.154,0.58 0.389,1.153 0.633,1.701 0.251,0.564 0.516,1.124 0.762,1.689 0.078,0.178 0.147,0.362 0.225,0.539 0.07,0.171 0.266,0.253 0.437,0.183 l 0.093,-0.063 0.116,0.171 c 0.12,0.161 0.252,0.301 0.375,0.458 0.05,0.053 0.106,0.095 0.183,0.112 0.008,10e-4 0.016,0.003 0.024,0.004 0.038,0.085 0.077,0.169 0.116,0.254 -0.133,-0.071 -0.302,-0.025 -0.38,0.106 -0.185,0.311 -0.371,0.605 -0.575,0.903 l -0.067,0.086 -0.052,-0.032 c -0.038,-0.012 -0.081,-0.014 -0.125,-0.002 -0.119,0.031 -0.216,0.134 -0.309,0.21 -0.2,0.162 -0.396,0.357 -0.589,0.53 -0.237,0.212 -0.481,0.418 -0.714,0.633 -0.273,0.251 -0.567,0.494 -0.831,0.752 -0.305,0.299 -0.622,0.586 -0.923,0.89 -0.278,0.28 -0.539,0.571 -0.801,0.865 -0.436,0.491 -0.869,1.08 -1.206,1.643 -0.075,0.126 -0.142,0.257 -0.216,0.383 -0.027,0.045 -0.052,0.096 -0.063,0.148 -0.01,0.042 -0.005,0.084 0.009,0.123 l 0.021,0.03 -0.112,0.148 C 8.425,57.42 8.39,57.378 8.356,57.336 8.324,57.274 8.295,57.212 8.272,57.15 8.235,57.054 8.176,56.907 8.132,56.757 L 8.123,56.715 8.429,56.31 c 0.095,-0.112 0.196,-0.216 0.284,-0.334 0.16,-0.213 0.368,-0.444 0.552,-0.638 0.464,-0.49 0.932,-0.94 1.438,-1.388 0.704,-0.624 1.413,-1.244 2.12,-1.865 0.466,-0.409 0.936,-0.814 1.39,-1.236 l 0.147,-0.138 c 0.136,-0.123 0.264,-0.25 0.397,-0.372 l -0.042,0.02 0.107,-0.113 c 0.18,-0.294 -0.166,-0.63 -0.461,-0.501 l -0.12,0.083 c -0.173,0.175 -0.355,0.318 -0.537,0.479 -0.319,0.281 -0.662,0.539 -0.999,0.798 -1.197,0.922 -2.443,1.746 -3.591,2.731 -0.45,0.386 -0.847,0.795 -1.204,1.267 -0.08,0.106 -0.186,0.262 -0.244,0.38 -0.106,0.216 -0.29,0.509 -0.303,0.751 -0.004,0.076 -0.017,0.146 -0.016,0.227 0.011,0.682 0.503,1.442 0.845,2 0.076,0.125 0.16,0.248 0.25,0.375 0.529,1.197 1.187,2.345 1.971,3.4 0.259,0.349 0.541,0.683 0.826,1.01 0.533,0.612 1.098,1.148 1.731,1.655 0.189,0.152 0.415,0.33 0.62,0.457 0.205,0.126 0.401,0.259 0.614,0.375 0.242,0.132 0.483,0.25 0.729,0.373 0.358,0.179 0.742,0.288 1.111,0.433 0.166,0.056 0.346,-0.018 0.428,-0.167 0.01,0.007 0.021,0.014 0.032,0.021 0.031,0.019 0.063,0.038 0.095,0.058 -0.013,0.083 0.007,0.171 0.063,0.243 0.106,0.136 0.304,0.16 0.44,0.054 0.003,-0.003 0.006,-0.006 0.009,-0.008 0.17,0.042 0.356,-0.031 0.447,-0.19 0.035,-0.063 0.052,-0.131 0.052,-0.198 1.316,-1.022 2.647,-2.035 3.875,-3.16 0.008,-0.005 0.016,-0.011 0.024,-0.017 0.389,-0.297 0.795,-0.6 1.164,-0.921 0.138,-0.12 0.269,-0.245 0.404,-0.368 0.124,-0.113 0.241,-0.231 0.36,-0.349 0.04,-0.04 0.105,-0.097 0.134,-0.142 0.127,-0.198 0.184,-0.359 0.232,-0.585 0.272,0.081 0.54,0.165 0.809,0.267 0.177,0.066 0.352,0.136 0.526,0.208 0.121,0.074 0.24,0.149 0.357,0.223 0.451,0.285 0.901,0.585 1.362,0.854 0.101,0.059 0.199,0.128 0.302,0.183 0.171,0.091 0.343,0.184 0.511,0.28 0.208,0.118 0.443,0.216 0.661,0.315 0.202,0.066 0.421,-0.035 0.503,-0.227 0.136,0.05 0.272,0.099 0.408,0.146 -0.074,0.896 -0.084,1.859 -0.038,2.757 0.008,0.166 0.013,0.334 0.022,0.501 -0.052,0.404 -0.053,0.813 -0.042,1.228 0.014,0.567 0.049,1.146 0.127,1.708 0.036,0.257 0.067,0.522 0.127,0.774 0.017,0.073 0.036,0.146 0.056,0.218 0.014,0.132 0.035,0.263 0.064,0.392 0.076,0.346 0.159,0.624 0.309,0.946 0.327,0.702 1.031,1.313 1.744,1.599 0.265,0.106 0.595,0.183 0.875,0.236 0.903,0.17 1.803,0.19 2.719,0.149 0.346,-0.016 0.705,-0.033 1.049,-0.072 0.558,-0.063 1.111,-0.128 1.668,-0.204 0.452,-0.062 0.906,-0.144 1.356,-0.218 0.502,-0.082 1.002,-0.176 1.504,-0.255 0.087,-0.014 0.174,-0.028 0.258,-0.042 0.637,0.023 1.269,0.02 1.887,0.015 0.106,-10e-4 0.213,-0.002 0.319,-0.003 0.271,-0.002 0.561,0 0.832,-0.015 0.114,-0.006 0.274,0.011 0.38,-0.014 0.109,-0.026 0.214,-0.109 0.268,-0.206 0.063,-0.114 0.088,-0.369 0.11,-0.505 0.015,-0.091 0.037,-0.183 0.053,-0.274 0.121,-0.705 0.178,-1.435 0.207,-2.149 0.045,-1.096 0.044,-2.2 0.026,-3.297 -0.019,-1.132 -0.05,-2.281 0.015,-3.411 10e-4,-0.041 -0.003,-0.081 -0.012,-0.119 0.209,-0.064 0.418,-0.125 0.628,-0.185 0.011,0.018 0.025,0.035 0.041,0.051 0.117,0.118 0.31,0.119 0.428,0.002 0.088,-0.089 0.176,-0.175 0.267,-0.257 0.061,-0.017 0.122,-0.033 0.183,-0.049 0.498,-0.134 0.995,-0.273 1.495,-0.398 0.676,-0.17 1.353,-0.355 2.024,-0.542 0.25,-0.07 0.491,-0.165 0.743,-0.231 0.093,-0.031 0.168,-0.092 0.217,-0.168 0.008,0.008 0.016,0.016 0.025,0.024 0.446,0.44 0.924,0.845 1.393,1.259 0.219,0.193 0.453,0.394 0.682,0.575 0.198,0.156 0.39,0.324 0.59,0.477 0.167,0.128 0.333,0.255 0.499,0.381 0.811,0.927 1.661,1.785 2.686,2.498 0.184,0.128 0.439,0.083 0.567,-0.101 0.053,-0.079 0.077,-0.169 0.071,-0.258 0.042,-0.027 0.083,-0.055 0.125,-0.082 0.324,0.11 0.657,0.186 1.01,0.199 0.996,0.035 2.094,-0.971 2.754,-1.628 0.312,-0.311 0.589,-0.635 0.883,-0.965 0.697,-0.785 1.327,-1.64 1.934,-2.505 0.003,-0.002 0.006,-0.005 0.01,-0.007 0.374,-0.319 0.771,-0.654 1.119,-1 0.657,-0.652 1.26,-1.364 1.752,-2.148 0.09,-0.149 0.086,-0.33 0.004,-0.471 0.016,-0.108 -0.009,-0.221 -0.077,-0.312 -0.148,-0.198 -0.292,-0.402 -0.44,-0.601 -0.057,-0.077 -0.101,-0.164 -0.161,-0.242 -0.169,-0.219 -0.36,-0.443 -0.543,-0.651 -0.023,-0.026 -0.045,-0.051 -0.067,-0.076 0.067,-0.024 0.129,-0.064 0.181,-0.119 0.174,-0.187 0.165,-0.482 -0.022,-0.656 -0.527,-0.472 -1.031,-0.97 -1.582,-1.416 -0.241,-0.195 -0.48,-0.397 -0.725,-0.587 -0.248,-0.192 -0.501,-0.379 -0.75,-0.57 -0.105,-0.08 -0.211,-0.159 -0.318,-0.237 -0.11,-0.141 -0.219,-0.283 -0.326,-0.426 -0.114,-0.152 -0.304,-0.212 -0.477,-0.169 l -0.029,0.013 c -0.168,-0.238 -0.326,-0.487 -0.471,-0.744 -0.014,-0.024 -0.027,-0.048 -0.04,-0.072 0.3,-0.242 0.602,-0.483 0.909,-0.719 0.073,-0.059 0.085,-0.169 0.026,-0.242 -0.059,-0.073 -0.169,-0.085 -0.242,-0.026 -0.283,0.226 -0.561,0.459 -0.838,0.692 -0.071,-0.159 -0.131,-0.319 -0.187,-0.483 0.086,-0.186 0.17,-0.382 0.242,-0.571 0.05,-0.133 0.098,-0.266 0.145,-0.398 0.079,-0.041 0.143,-0.11 0.173,-0.2 0.061,-0.22 0.141,-0.439 0.205,-0.66 0.106,-0.37 0.196,-0.752 0.277,-1.137 l 0.038,-0.198 -0.017,0.089 c 0.063,-0.207 0.126,-0.414 0.19,-0.621 0.055,-0.181 0.108,-0.366 0.163,-0.55 l 0.072,-0.223 0.054,-0.156 c 0.012,-0.038 0.024,-0.075 0.034,-0.111 l 0.006,-0.024 0.007,-0.026 0.011,-0.053 c 0.015,-0.097 -0.003,-0.187 -0.045,-0.261 0.011,-0.043 0.022,-0.086 0.033,-0.129 0.698,-0.109 1.407,-0.133 2.112,-0.156 0.514,-0.017 1.026,-0.045 1.54,-0.065 0.912,-0.035 1.826,-0.035 2.738,-0.066 0.48,-0.016 0.967,-0.015 1.445,-0.042 0.394,-0.022 0.794,-0.044 1.188,-0.06 0.4,-0.016 0.846,-0.054 1.242,-0.115 0.113,-0.017 0.213,-0.019 0.317,-0.079 0.205,-0.118 0.288,-0.439 0.35,-0.659 0.069,-0.245 0.132,-0.484 0.186,-0.733 0.068,-0.313 0.09,-0.635 0.129,-0.953 0.033,-0.272 0.03,-0.545 0.052,-0.817 0.028,-0.356 0.011,-0.718 0.013,-1.075 0.003,-0.51 -0.025,-1.02 -0.048,-1.529 -0.038,-0.842 -0.098,-1.684 -0.132,-2.526 -0.016,-0.4 -0.034,-0.81 -0.027,-1.21 10e-4,-0.088 0.003,-0.174 0.006,-0.258 0.027,-0.287 0.053,-0.572 0.078,-0.857 0.031,-0.373 0.057,-0.757 0.064,-1.131 0.002,-0.131 0.016,-0.265 0.011,-0.396 -0.006,-0.148 -0.096,-0.293 -0.223,-0.372 L 73.587,31.25 73.532,31.196 c -0.082,-0.083 -0.156,-0.184 -0.23,-0.276 -0.167,-0.208 -0.378,-0.52 -0.655,-0.579 -0.099,-0.021 -0.228,10e-4 -0.329,0.012 -0.151,0.016 -0.306,0.027 -0.458,0.034 -0.25,0.01 -0.499,0.018 -0.748,0.022 C 69.408,30.045 67.719,29.934 65.984,29.848 65.102,29.804 64.213,29.78 63.33,29.755 63.238,29.752 63.145,29.751 63.053,29.752 H 63.04 c -0.048,-0.132 -0.096,-0.263 -0.143,-0.394 0.143,-0.076 0.287,-0.152 0.431,-0.227 0.071,-0.038 0.099,-0.128 0.061,-0.199 -0.038,-0.071 -0.128,-0.099 -0.199,-0.061 -0.132,0.069 -0.263,0.138 -0.395,0.208 -0.299,-0.828 -0.6,-1.657 -0.935,-2.47 0.005,-0.003 0.01,-0.007 0.015,-0.01 0.081,-0.064 0.096,-0.183 0.032,-0.264 -0.047,-0.059 -0.122,-0.083 -0.191,-0.068 -0.202,-0.472 -0.418,-0.937 -0.654,-1.392 -0.112,-0.215 -0.231,-0.438 -0.357,-0.659 0.327,-0.202 0.656,-0.403 0.986,-0.601 0.328,-0.197 0.666,-0.382 0.993,-0.58 0.363,-0.22 0.735,-0.435 1.106,-0.641 0.078,-0.044 0.106,-0.146 0.062,-0.224 -0.044,-0.078 -0.146,-0.106 -0.224,-0.062 -0.861,0.465 -1.723,0.994 -2.536,1.539 0.303,-0.282 0.606,-0.57 0.908,-0.859 1.116,-1.074 2.18,-2.212 3.089,-3.468 0.222,-0.306 0.416,-0.614 0.606,-0.94 0.034,-0.06 0.073,-0.125 0.111,-0.194 0.129,-0.09 0.259,-0.18 0.389,-0.268 0.174,-0.13 0.211,-0.379 0.081,-0.553 -0.021,-0.027 -0.043,-0.051 -0.068,-0.071 0.051,-0.14 0.105,-0.283 0.14,-0.424 0.007,-0.03 0.014,-0.059 0.021,-0.089 0.047,0.046 0.094,0.092 0.142,0.138 0.155,0.149 0.334,0.29 0.481,0.444 0.199,0.174 0.505,0.154 0.679,-0.045 0.174,-0.199 0.154,-0.505 -0.045,-0.679 -0.282,-0.213 -0.582,-0.508 -0.829,-0.762 -0.348,-0.358 -0.697,-0.714 -1.038,-1.079 -0.219,-0.234 -0.435,-0.476 -0.657,-0.707 -0.25,-0.26 -0.495,-0.527 -0.74,-0.793 0.008,-0.008 0.017,-0.016 0.026,-0.024 0.325,-0.306 0.605,-0.655 0.895,-0.993 0.044,-0.04 0.046,-0.11 0.006,-0.154 -0.04,-0.044 -0.11,-0.046 -0.154,-0.006 -0.181,0.115 -0.353,0.252 -0.527,0.377 -0.2,0.143 -0.392,0.289 -0.581,0.438 -0.037,-0.039 -0.073,-0.078 -0.109,-0.116 -0.485,-0.516 -0.976,-1.024 -1.482,-1.515 0.176,-0.131 0.354,-0.26 0.533,-0.388 0.119,-0.088 0.144,-0.257 0.056,-0.376 -0.088,-0.119 -0.257,-0.144 -0.376,-0.056 -0.202,0.149 -0.404,0.298 -0.605,0.448 -0.481,-0.45 -0.978,-0.882 -1.497,-1.29 C 59.705,8.982 58.642,8.309 57.582,8.092 57.351,8.045 56.794,7.958 56.555,8.023 56.359,8.076 56.241,8.257 56.108,8.401 55.881,8.648 55.65,8.88 55.407,9.111 c -0.499,0.475 -1.03,0.902 -1.551,1.351 -0.505,0.435 -1,0.878 -1.501,1.316 -0.397,0.347 -0.791,0.729 -1.159,1.108 -0.356,0.365 -0.711,0.746 -1.042,1.143 -0.071,-0.043 -0.142,-0.082 -0.199,-0.116 -0.056,-0.033 -0.115,-0.065 -0.177,-0.096 0.121,-0.099 0.241,-0.198 0.362,-0.296 0.771,-0.633 1.52,-1.294 2.281,-1.939 0.072,-0.061 0.08,-0.171 0.019,-0.243 -0.061,-0.072 -0.171,-0.08 -0.243,-0.019 -0.916,0.779 -1.821,1.567 -2.722,2.361 -0.064,-0.026 -0.129,-0.051 -0.194,-0.075 L 48.944,13.489 48.77,13.405 c -0.213,-0.103 -0.427,-0.205 -0.642,-0.304 0.077,-0.052 0.153,-0.104 0.23,-0.155 0.08,-0.054 0.1,-0.164 0.046,-0.244 -0.054,-0.08 -0.164,-0.1 -0.244,-0.046 -0.134,0.092 -0.267,0.184 -0.4,0.278 -0.553,-0.245 -1.114,-0.466 -1.688,-0.631 0.168,-0.137 0.337,-0.274 0.505,-0.411 0.077,-0.065 0.088,-0.182 0.023,-0.259 -0.065,-0.077 -0.182,-0.088 -0.259,-0.023 -0.235,0.192 -0.466,0.389 -0.702,0.581 -0.212,-0.05 -0.426,-0.091 -0.641,-0.121 0.244,-0.95 0.371,-1.918 0.423,-2.892 0.075,-0.046 0.15,-0.092 0.225,-0.138 0.076,-0.048 0.1,-0.15 0.052,-0.226 C 45.65,8.738 45.548,8.714 45.472,8.762 45.461,8.768 45.449,8.775 45.439,8.782 45.465,8.004 45.447,7.223 45.407,6.446 45.397,6.269 45.387,6.09 45.376,5.912 45.617,5.691 45.858,5.47 46.101,5.251 46.156,5.201 46.159,5.114 46.109,5.059 46.059,5.004 45.972,5.001 45.917,5.051 45.729,5.223 45.542,5.395 45.353,5.566 45.336,5.316 45.315,5.066 45.292,4.82 45.239,4.273 45.2,3.725 45.144,3.178 45.135,3.098 45.128,3.018 45.122,2.939 45.317,2.798 45.513,2.656 45.708,2.513 45.825,2.431 45.853,2.269 45.771,2.152 45.689,2.035 45.527,2.007 45.41,2.089 45.251,2.191 45.094,2.297 44.939,2.405 L 44.937,2.404 C 44.701,2.208 44.298,2.146 44.001,2.107 l -0.11,-0.014 0.02,10e-4 C 43.907,2.085 43.903,2.075 43.898,2.067 43.852,1.991 43.751,1.966 43.675,2.012 43.649,2.026 43.624,2.041 43.599,2.056 L 43.475,2.041 43.402,2.01 H 43.218 L 42.094,1.924 C 41.914,1.915 41.735,1.907 41.556,1.899 41.666,1.819 41.777,1.739 41.888,1.661 41.948,1.618 41.962,1.532 41.919,1.472 41.876,1.412 41.79,1.398 41.73,1.441 41.524,1.586 41.32,1.732 41.116,1.88 Z M 39.983,2.72 C 39.915,2.771 39.848,2.822 39.781,2.873 39.318,2.846 38.855,2.827 38.392,2.819 38.454,2.78 38.516,2.741 38.578,2.701 c 0.468,0.003 0.936,0.008 1.405,0.019 z m -2.101,0.094 c -0.05,0 -0.101,0 -0.15,10e-4 -0.595,0.002 -1.183,0.016 -1.773,0.041 0.075,-0.041 0.15,-0.082 0.225,-0.122 0.626,-0.024 1.254,-0.033 1.878,-0.034 -0.06,0.038 -0.12,0.076 -0.18,0.114 z m 3.734,-0.029 c 0.243,0.014 0.488,0.028 0.732,0.046 C 42.22,2.913 42.092,2.995 41.964,3.078 41.553,3.031 41.145,2.976 40.732,2.942 40.545,2.926 40.359,2.911 40.172,2.898 40.25,2.842 40.328,2.787 40.407,2.731 40.81,2.743 41.213,2.76 41.616,2.785 Z m -6.093,0.091 c -0.228,0.012 -0.455,0.025 -0.683,0.041 -0.382,0.025 -0.771,0.051 -1.151,0.092 -0.55,0.059 -1.098,0.125 -1.648,0.188 -0.085,0.009 -0.145,0.087 -0.136,0.172 0.009,0.085 0.087,0.145 0.172,0.136 C 33.019,3.387 33.949,3.301 34.876,3.25 34.04,3.751 33.227,4.3 32.421,4.824 32.127,5.014 31.825,5.191 31.522,5.365 31.49,4.701 31.453,4.037 31.418,3.376 31.554,3.312 31.7,3.261 31.782,3.237 32.478,3.024 33.199,2.951 33.924,2.879 34.142,2.857 34.36,2.842 34.579,2.825 34.968,2.794 35.359,2.77 35.751,2.752 35.675,2.793 35.598,2.834 35.523,2.876 Z m 7.405,10e-4 0.005,0.001 0.184,0.932 c -0.899,0.745 -1.752,1.514 -2.617,2.299 -0.448,0.407 -0.878,0.838 -1.32,1.252 -0.647,0.605 -1.277,1.228 -1.916,1.842 -0.793,0.762 -1.589,1.523 -2.397,2.269 -0.509,0.47 -1.033,0.925 -1.554,1.38 -0.291,0.254 -0.596,0.495 -0.888,0.748 -0.055,0.046 -0.063,0.13 -0.017,0.185 0.046,0.055 0.13,0.063 0.185,0.017 0.557,-0.471 1.126,-0.936 1.67,-1.423 0.667,-0.597 1.331,-1.194 1.987,-1.803 1.165,-1.081 2.319,-2.176 3.498,-3.241 0.588,-0.531 1.172,-1.071 1.777,-1.582 0.564,-0.478 1.131,-0.95 1.71,-1.409 0.196,0.863 0.407,1.723 0.583,2.591 -0.32,0.281 -0.642,0.562 -0.963,0.842 -0.307,0.267 -0.623,0.525 -0.932,0.791 -1.04,0.895 -2.095,1.777 -3.125,2.684 -0.285,0.25 -0.568,0.502 -0.85,0.755 -0.003,-0.011 -0.006,-0.023 -0.011,-0.034 -0.043,-0.098 -0.158,-0.143 -0.256,-0.1 -1.759,0.718 -3.265,2.087 -4.63,3.38 -0.441,0.418 -0.886,0.831 -1.332,1.243 -0.273,0.252 -0.557,0.527 -0.844,0.763 -0.178,0.147 -0.352,0.298 -0.53,0.445 -0.325,0.268 -0.67,0.515 -1.01,0.763 l -0.01,0.058 0.058,0.01 c 0.171,-0.132 0.353,-0.25 0.525,-0.38 0.161,-0.122 0.321,-0.247 0.48,-0.371 0.476,-0.37 0.935,-0.775 1.391,-1.17 0.374,-0.324 0.748,-0.648 1.12,-0.973 0.702,-0.615 1.409,-1.204 2.156,-1.763 0.423,-0.317 0.872,-0.599 1.32,-0.879 0.383,-0.241 0.791,-0.471 1.207,-0.66 -1.306,1.188 -2.581,2.419 -3.787,3.701 -0.033,0.035 -0.032,0.092 0.003,0.125 0.035,0.033 0.092,0.032 0.125,-0.003 2.124,-2.234 4.439,-4.202 6.788,-6.194 0.933,-0.791 1.86,-1.589 2.786,-2.388 0.127,-0.11 0.255,-0.22 0.383,-0.331 0.038,0.203 0.075,0.405 0.109,0.609 0.09,0.547 0.158,1.142 0.187,1.718 -0.182,0.117 -0.362,0.236 -0.54,0.357 -1.727,1.17 -3.476,2.448 -4.989,3.886 -0.829,0.788 -1.57,1.574 -2.275,2.476 -0.203,0.26 -0.427,0.551 -0.6,0.831 -0.013,0.02 -0.008,0.049 0.012,0.062 0.02,0.013 0.049,0.008 0.062,-0.012 0.337,-0.523 0.734,-1.006 1.137,-1.479 0.617,-0.725 1.333,-1.428 2.058,-2.046 1.512,-1.289 3.152,-2.442 4.843,-3.485 0.102,-0.064 0.204,-0.129 0.306,-0.196 0.001,0.078 0.002,0.154 0.002,0.231 -10e-4,0.608 -0.047,1.2 -0.108,1.802 -0.059,0 -0.118,10e-4 -0.176,0.003 -0.19,0 -0.344,0.156 -0.344,0.346 0,0.19 0.156,0.344 0.346,0.344 0.336,-0.011 0.664,0.017 0.987,0.074 -0.49,0.37 -0.99,0.73 -1.484,1.095 -0.636,0.468 -1.286,0.926 -1.929,1.384 -1.058,0.754 -2.087,1.546 -3.061,2.404 -0.054,0.047 -0.059,0.13 -0.012,0.184 0.047,0.054 0.13,0.059 0.184,0.012 0.526,-0.48 1.093,-0.922 1.661,-1.351 1.047,-0.79 2.145,-1.519 3.223,-2.266 0.618,-0.429 1.222,-0.859 1.82,-1.314 0.02,-0.016 0.041,-0.032 0.061,-0.047 0.061,0.016 0.121,0.032 0.181,0.05 l 0.181,0.059 -0.011,0.038 c -0.038,0.208 0.074,0.422 0.277,0.505 0.163,0.065 0.322,0.138 0.488,0.196 0.045,0.015 0.091,0.031 0.137,0.046 -1.221,0.907 -2.413,1.856 -3.601,2.798 -0.58,0.459 -1.164,0.924 -1.752,1.372 -0.281,0.214 -0.58,0.426 -0.85,0.651 -0.439,0.367 -0.879,0.722 -1.337,1.066 -0.027,0.019 -0.032,0.058 -0.013,0.085 0.019,0.027 0.058,0.032 0.085,0.013 0.259,-0.19 0.52,-0.374 0.786,-0.554 0.235,-0.159 0.483,-0.311 0.71,-0.481 1.453,-1.093 2.872,-2.232 4.32,-3.332 0.671,-0.51 1.347,-1.008 2.032,-1.494 0.134,0.043 0.269,0.086 0.404,0.131 0.403,0.134 0.824,0.236 1.224,0.376 0.011,0.003 0.022,0.007 0.033,0.011 -0.346,0.308 -0.692,0.615 -1.037,0.924 -1.859,1.655 -3.718,3.308 -5.535,5.01 -0.075,-0.027 -0.15,-0.054 -0.225,-0.08 -0.449,-0.157 -0.896,-0.274 -1.356,-0.389 -0.398,-0.1 -0.812,-0.153 -1.218,-0.209 -0.103,-0.013 -0.199,0.061 -0.212,0.164 -0.013,0.103 0.061,0.199 0.164,0.212 0.548,0.078 1.065,0.162 1.601,0.311 0.075,0.02 0.15,0.042 0.231,0.065 -0.593,-0.079 -1.182,-0.125 -1.775,-0.154 -0.451,-0.022 -0.914,-0.021 -1.365,-0.006 -0.568,0.018 -1.14,0.048 -1.704,0.121 -1.083,0.14 -2.162,0.323 -3.211,0.636 -0.344,0.102 -0.69,0.202 -1.028,0.322 -0.195,0.068 -0.389,0.14 -0.579,0.214 -0.242,0.029 -0.482,0.069 -0.715,0.122 -0.21,0.047 -0.466,0.099 -0.665,0.172 -0.163,0.06 -0.344,0.121 -0.51,0.174 -0.169,0.054 -0.346,0.146 -0.511,0.215 -0.307,0.128 -0.684,0.338 -0.962,0.521 -0.318,0.209 -0.621,0.415 -0.918,0.655 -0.015,0.011 -0.029,0.022 -0.039,0.039 -0.191,0.11 -0.361,0.232 -0.526,0.354 -1.12,0.825 -2.121,1.925 -2.911,3.067 -0.311,0.449 -0.582,0.926 -0.848,1.403 -0.188,0.335 -0.357,0.69 -0.513,1.052 -0.369,0.765 -0.675,1.561 -0.919,2.373 -0.172,0.572 -0.307,1.153 -0.428,1.737 -0.065,0.311 -0.102,0.629 -0.157,0.942 -0.03,0.173 -0.045,0.353 -0.067,0.528 -0.062,0.502 -0.097,1.006 -0.109,1.512 -0.018,0.763 -0.019,1.553 0.048,2.314 0.037,0.424 0.083,0.843 0.137,1.263 0,1.148 0.104,2.341 0.414,3.446 1.06,3.78 3.686,6.905 7.052,8.887 0.603,0.355 1.238,0.71 1.882,0.983 0.428,0.181 0.847,0.363 1.284,0.524 0.623,0.229 1.275,0.429 1.919,0.589 0.408,0.101 0.814,0.199 1.228,0.271 0.167,0.029 0.327,0.06 0.497,0.073 0.278,0.021 0.609,-0.032 0.886,-0.073 0.022,0.002 0.043,-0.013 0.045,-0.035 0.002,-0.022 -0.013,-0.043 -0.035,-0.045 -0.299,-0.131 -0.58,-0.246 -0.896,-0.331 -0.182,-0.049 -0.371,-0.069 -0.556,-0.105 -0.35,-0.069 -0.703,-0.148 -1.048,-0.237 -1.188,-0.305 -2.351,-0.712 -3.459,-1.241 -1.408,-0.673 -2.778,-1.509 -3.962,-2.53 -0.275,-0.237 -0.557,-0.479 -0.814,-0.735 0.123,-0.191 0.242,-0.369 0.367,-0.546 0.197,0.155 0.398,0.302 0.602,0.439 0.083,0.056 0.166,0.109 0.248,0.161 0.196,0.193 0.397,0.381 0.603,0.564 -0.1,0.117 -0.199,0.234 -0.298,0.352 -0.027,0.032 -0.023,0.08 0.009,0.107 0.032,0.027 0.08,0.023 0.107,-0.009 0.098,-0.117 0.197,-0.233 0.296,-0.348 0.349,0.306 0.709,0.597 1.081,0.875 0.158,0.137 0.318,0.279 0.485,0.414 -0.006,0.008 -0.012,0.016 -0.017,0.024 -0.019,0.025 -0.014,0.064 0.011,0.083 0.025,0.019 0.064,0.014 0.083,-0.011 0.005,-0.008 0.011,-0.015 0.016,-0.023 0.038,0.029 0.077,0.058 0.116,0.086 0.146,0.105 0.292,0.221 0.441,0.319 0.544,0.359 1.07,0.678 1.656,0.966 1.443,0.709 2.995,1.147 4.582,1.281 l -0.002,0.003 c -0.017,0.024 -0.012,0.059 0.012,0.076 0.024,0.017 0.059,0.012 0.076,-0.012 0.003,-0.006 0.007,-0.011 0.011,-0.017 1.897,0.194 3.834,0.008 5.674,-0.545 0.646,-0.195 1.436,-0.578 2.001,-0.948 0.135,-0.089 0.268,-0.183 0.403,-0.271 0.025,-0.017 0.05,-0.034 0.073,-0.055 1.851,-0.9 3.678,-2.144 5.189,-3.612 0.265,-0.19 0.528,-0.386 0.769,-0.598 0.175,-0.155 0.351,-0.309 0.526,-0.464 0.13,-0.115 0.263,-0.256 0.386,-0.38 0.028,-0.029 0.056,-0.057 0.083,-0.086 0.015,0.02 0.035,0.036 0.058,0.049 0.085,0.045 0.193,0.013 0.238,-0.072 0.213,-0.329 0.425,-0.66 0.624,-0.998 0.122,-0.149 0.241,-0.301 0.356,-0.456 0.543,-0.736 1.028,-1.483 1.446,-2.298 0.208,-0.406 0.386,-0.822 0.568,-1.24 0.05,-0.116 0.097,-0.235 0.142,-0.356 0.237,-0.171 0.475,-0.344 0.713,-0.516 0.672,-0.489 1.339,-0.982 2.013,-1.468 0.953,-0.687 1.906,-1.385 2.876,-2.047 0.911,-0.622 1.823,-1.227 2.745,-1.832 1.096,-0.72 2.243,-1.384 3.387,-2.025 0.652,-0.365 1.311,-0.701 1.978,-1.036 0.55,-0.276 1.11,-0.54 1.677,-0.779 0.1,-0.044 0.146,-0.162 0.102,-0.262 -0.044,-0.1 -0.162,-0.146 -0.262,-0.102 -0.488,0.195 -0.994,0.442 -1.466,0.675 -0.394,0.195 -0.79,0.385 -1.177,0.594 -0.597,0.323 -1.183,0.65 -1.771,0.989 -0.624,0.36 -1.238,0.76 -1.842,1.152 -0.941,0.61 -1.868,1.255 -2.774,1.915 -1.814,1.322 -3.603,2.68 -5.399,4.027 -0.245,0.183 -0.492,0.364 -0.739,0.544 0.013,-0.038 0.027,-0.075 0.04,-0.112 0.115,-0.334 0.236,-0.668 0.331,-1.009 0.116,-0.419 0.208,-0.835 0.302,-1.259 0.054,-0.246 0.1,-0.505 0.138,-0.764 0.775,-0.551 1.557,-1.091 2.346,-1.623 0.631,-0.426 1.275,-0.83 1.921,-1.233 0.403,-0.252 0.823,-0.511 1.237,-0.742 0.315,-0.176 0.624,-0.37 0.943,-0.537 0.287,-0.151 0.57,-0.313 0.857,-0.464 0.532,-0.28 1.07,-0.546 1.613,-0.803 0.266,-0.126 0.533,-0.245 0.802,-0.365 0.202,-0.09 0.404,-0.186 0.61,-0.266 0.328,-0.128 0.648,-0.282 0.977,-0.411 0.617,-0.243 1.219,-0.468 1.847,-0.676 0.088,-0.03 0.145,-0.114 0.144,-0.203 0.896,0.055 1.798,0.097 2.68,0.083 0.589,0.07 1.139,0.236 1.671,0.433 0.049,0.056 0.102,0.111 0.159,0.163 l 0.046,0.034 -0.009,0.217 c -0.013,0.234 -0.029,0.472 -0.048,0.709 -0.064,0.079 -0.104,0.178 -0.109,0.288 -0.022,0.423 -0.043,0.844 -0.04,1.268 -0.037,0.351 -0.076,0.703 -0.113,1.055 -0.034,0.007 -0.067,0.02 -0.096,0.042 -0.303,0.218 -0.612,0.427 -0.915,0.645 -0.557,0.401 -1.111,0.813 -1.654,1.233 -1.584,1.225 -3.117,2.506 -4.667,3.772 -0.599,0.488 -1.201,0.973 -1.801,1.46 -0.045,-0.009 -0.09,-0.019 -0.134,-0.028 -0.27,-0.059 -0.548,-0.114 -0.815,-0.185 -0.369,-0.098 -0.726,-0.207 -1.091,-0.314 -0.043,-0.013 -0.089,0.011 -0.102,0.054 -0.013,0.043 0.011,0.089 0.054,0.102 0.365,0.109 0.725,0.215 1.089,0.317 -0.069,0.021 -0.135,0.069 -0.182,0.15 -0.092,0.156 -0.196,0.536 -0.24,0.72 -0.026,0.102 -0.051,0.205 -0.076,0.307 -0.062,0.013 -0.123,0.027 -0.183,0.046 -0.161,0.049 -0.327,0.081 -0.487,0.139 -0.189,0.056 -0.296,0.257 -0.24,0.446 0.02,0.068 0.059,0.126 0.111,0.169 -0.162,0.142 -0.324,0.282 -0.487,0.422 l -1.485,1.187 0.041,-0.128 c 0.03,-0.121 0.055,-0.255 0.077,-0.378 0.046,-0.253 0.122,-0.704 0.362,-0.852 0.028,-0.017 0.061,-0.033 0.087,-0.05 l -0.026,-0.046 c -0.416,0.206 -0.407,0.734 -0.506,1.128 -0.034,0.134 -0.067,0.256 -0.104,0.388 l 0.003,0.021 0.052,-0.01 c 0.033,-0.018 0.057,-0.04 0.067,-0.046 0.116,-0.072 0.234,-0.161 0.347,-0.239 0.282,-0.194 0.57,-0.387 0.856,-0.575 0.4,-0.264 0.798,-0.528 1.191,-0.798 0.045,-0.013 0.09,-0.026 0.134,-0.037 -0.028,0.127 -0.055,0.256 -0.079,0.386 -0.037,0.185 -0.072,0.371 -0.108,0.556 -0.009,0.006 -0.016,0.013 -0.023,0.021 -0.974,1.049 -1.987,2.073 -3.058,3.026 -0.424,0.377 -0.85,0.775 -1.29,1.131 -0.251,0.203 -0.492,0.421 -0.747,0.619 -0.224,0.174 -0.453,0.356 -0.673,0.536 -0.036,0.028 -0.043,0.081 -0.015,0.117 0.028,0.036 0.081,0.043 0.117,0.015 0.219,-0.189 0.467,-0.369 0.695,-0.551 0.526,-0.421 1.052,-0.85 1.565,-1.287 0.781,-0.666 1.552,-1.34 2.309,-2.034 0.306,-0.283 0.604,-0.574 0.901,-0.866 l 10e-4,-0.002 -0.176,0.58 -0.21,0.533 c -0.123,0.296 -0.251,0.591 -0.382,0.885 -0.254,0.565 -0.504,1.132 -0.756,1.699 -0.126,-0.07 -0.253,-0.14 -0.377,-0.21 -0.158,-0.094 -0.364,-0.042 -0.458,0.116 -0.094,0.158 -0.042,0.364 0.116,0.458 0.186,0.109 0.356,0.231 0.532,0.351 0.009,0.083 0.044,0.162 0.102,0.226 -0.015,0.126 0.054,0.252 0.178,0.303 10e-4,0 0.002,10e-4 0.003,10e-4 -0.254,0.216 -0.506,0.434 -0.753,0.654 -0.421,0.375 -0.838,0.76 -1.253,1.142 -0.349,0.321 -0.698,0.642 -1.042,0.968 -0.172,0.163 -0.353,0.321 -0.521,0.488 -0.044,0.041 -0.046,0.111 -0.005,0.155 0.041,0.044 0.111,0.046 0.155,0.005 0.725,-0.709 1.519,-1.388 2.289,-2.046 0.409,-0.349 0.814,-0.715 1.228,-1.057 0.133,-0.111 0.267,-0.221 0.4,-0.332 0.073,0.048 0.146,0.097 0.219,0.148 0.29,0.2 0.574,0.411 0.854,0.616 0.166,0.174 0.324,0.348 0.476,0.532 0.373,0.453 0.732,0.917 1.089,1.383 -0.169,0.154 -0.334,0.308 -0.5,0.472 -0.324,0.315 -0.625,0.654 -0.943,0.975 -0.209,0.211 -0.424,0.42 -0.631,0.632 -0.053,0.051 -0.054,0.138 -0.003,0.191 0.051,0.053 0.138,0.054 0.191,0.003 0.499,-0.483 0.973,-0.991 1.473,-1.472 0.193,-0.188 0.393,-0.378 0.6,-0.558 0.484,0.63 0.97,1.259 1.492,1.861 0.145,0.167 0.292,0.324 0.443,0.476 0.007,0.012 0.012,0.024 0.018,0.035 0.023,0.047 0.051,0.096 0.077,0.144 -0.151,0.155 -0.313,0.288 -0.475,0.434 l -0.005,0.061 0.061,0.005 c 0.151,-0.135 0.317,-0.269 0.462,-0.416 0.068,0.135 0.126,0.276 0.192,0.413 0.099,0.203 0.345,0.287 0.548,0.188 0.016,-0.008 0.031,-0.017 0.046,-0.027 0.065,0.052 0.131,0.104 0.198,0.154 -0.018,0.034 -0.036,0.068 -0.053,0.096 -0.038,0.062 -0.085,0.123 -0.124,0.185 -0.009,0.013 -0.018,0.027 -0.027,0.04 -0.033,-0.054 -0.079,-0.101 -0.136,-0.137 -0.204,-0.129 -0.476,-0.067 -0.605,0.137 -0.126,0.196 -0.251,0.395 -0.375,0.595 -0.048,0.017 -0.094,0.045 -0.134,0.082 -0.317,0.284 -0.637,0.603 -0.938,0.906 -0.556,0.558 -1.123,1.109 -1.685,1.661 -0.73,0.718 -1.476,1.442 -2.241,2.122 -0.337,0.299 -0.678,0.591 -1.02,0.885 -0.325,0.278 -0.665,0.545 -1.011,0.803 -0.032,-0.046 -0.074,-0.085 -0.124,-0.114 -0.524,-0.312 -0.965,-0.644 -1.398,-1.082 -0.189,-0.191 -0.387,-0.379 -0.565,-0.58 -0.258,-0.291 -0.521,-0.583 -0.785,-0.869 -0.807,-0.877 -1.626,-1.75 -2.749,-2.209 -0.158,-0.065 -0.317,-0.124 -0.483,-0.164 -0.197,-0.047 -0.427,-0.065 -0.63,-0.096 -0.134,-0.022 -0.263,0.069 -0.285,0.203 -0.022,0.134 0.069,0.263 0.203,0.285 h 0.002 c -0.05,0.047 -0.026,0.082 0.007,0.111 0.508,0.456 0.929,0.911 1.357,1.436 C 52.159,61.346 51.742,60.983 51.358,60.609 51.171,60.427 51,60.239 50.819,60.054 50.738,59.966 50.6,59.96 50.512,60.041 c -0.088,0.081 -0.094,0.219 -0.013,0.307 0.03,0.032 0.061,0.065 0.092,0.097 -0.166,0.055 -0.338,0.103 -0.502,0.158 0.083,-0.11 0.108,-0.259 0.061,-0.392 0.167,-0.13 0.201,-0.372 0.076,-0.543 -0.128,-0.174 -0.376,-0.212 -0.55,-0.084 -0.144,0.1 -0.28,0.224 -0.428,0.324 -0.271,0.184 -0.551,0.348 -0.832,0.515 -0.249,0.147 -0.505,0.292 -0.766,0.442 -1.161,0.379 -2.359,0.623 -3.527,0.999 -0.158,0.047 -0.248,0.215 -0.201,0.373 0.047,0.158 0.215,0.248 0.373,0.201 0.56,-0.183 1.133,-0.32 1.709,-0.449 -0.435,0.147 -0.872,0.289 -1.307,0.433 -0.002,0 -0.004,0.001 -0.006,0.001 -0.005,0 -0.011,0 -0.016,0 -0.125,-0.005 -0.239,0.039 -0.327,0.114 -0.22,0.073 -0.44,0.148 -0.659,0.226 -0.029,-0.099 -0.058,-0.196 -0.086,-0.29 -0.051,-0.167 -0.108,-0.341 -0.147,-0.511 -0.021,-0.081 -0.105,-0.129 -0.186,-0.108 -0.081,0.021 -0.129,0.105 -0.108,0.186 0.078,0.268 0.137,0.557 0.178,0.847 -0.086,0.031 -0.172,0.063 -0.257,0.095 -0.12,0.041 -0.184,0.175 -0.143,0.295 0.041,0.12 0.175,0.184 0.295,0.143 0.051,-0.02 0.104,-0.04 0.156,-0.059 0.007,0.096 0.012,0.192 0.016,0.286 0.007,0.203 0.006,0.408 0.005,0.611 -10e-4,0.098 0.017,0.205 0.025,0.304 0.016,0.219 0.035,0.438 0.046,0.658 -0.047,0.251 -0.098,0.501 -0.143,0.751 -0.106,0.58 -0.249,1.171 -0.376,1.748 -0.053,0.243 -0.117,0.489 -0.153,0.734 -0.146,0.99 -0.226,1.99 -0.24,2.991 -0.002,0.059 0.016,0.115 0.046,0.162 -0.493,0.043 -0.982,0.109 -1.47,0.185 -0.42,0.011 -0.841,0.014 -1.261,0.033 -1.795,0.077 -3.594,0.139 -5.39,0.171 -0.791,0.014 -1.582,-0.024 -2.37,-0.054 -0.182,-0.007 -0.522,-0.035 -0.763,-0.108 l -0.174,-0.076 -0.144,-0.129 c -0.026,-0.029 -0.051,-0.059 -0.074,-0.09 0.156,-0.106 0.239,-0.301 0.194,-0.494 -0.276,-0.897 -0.502,-1.858 -0.622,-2.789 -0.065,-0.505 -0.12,-1.008 -0.163,-1.515 -0.067,-0.791 -0.084,-1.597 -0.101,-2.391 -0.007,-0.332 -0.012,-0.664 -0.014,-0.996 0.28,0.061 0.554,0.103 0.839,0.154 0.251,0.03 0.481,-0.15 0.511,-0.401 0.03,-0.251 -0.15,-0.481 -0.401,-0.511 -0.327,-0.029 -0.64,-0.063 -0.95,-0.111 0.001,-0.061 0.001,-0.122 0.002,-0.183 0,-0.086 -0.071,-0.157 -0.157,-0.157 H 30.1 c -0.041,-0.04 -0.091,-0.072 -0.147,-0.092 0.004,-0.038 0.008,-0.075 0.012,-0.112 0.025,-0.265 0.035,-0.531 0.094,-0.793 0.025,-0.138 -0.066,-0.271 -0.204,-0.296 -0.138,-0.025 -0.271,0.066 -0.296,0.204 -0.056,0.306 -0.137,0.594 -0.195,0.899 C 29.239,61.93 29.114,61.902 28.99,61.878 28.786,61.838 28.562,61.766 28.363,61.702 28.101,61.618 27.838,61.526 27.584,61.42 26.7,61.05 25.85,60.605 24.972,60.226 24.768,60.137 24.565,60.059 24.36,59.981 c 0.106,-0.186 0.071,-0.429 -0.094,-0.576 -0.19,-0.169 -0.484,-0.151 -0.653,0.039 -0.065,0.077 -0.131,0.154 -0.198,0.23 -0.256,-0.062 -0.516,-0.109 -0.768,-0.149 -0.124,-0.02 -0.244,0.064 -0.264,0.188 -0.02,0.124 0.064,0.244 0.188,0.264 0.166,0.024 0.327,0.055 0.485,0.091 -0.744,0.791 -1.591,1.536 -2.403,2.21 -0.389,0.323 -0.748,0.663 -1.117,1.008 -0.355,0.332 -0.705,0.662 -1.046,1.008 -0.211,0.213 -0.423,0.43 -0.631,0.651 -0.252,0.163 -0.515,0.313 -0.775,0.46 -0.122,0.069 -0.268,0.128 -0.391,0.195 -0.125,-0.074 -0.248,-0.15 -0.369,-0.228 0.022,-0.031 0.039,-0.066 0.052,-0.104 0.064,-0.202 -0.048,-0.42 -0.25,-0.484 C 15.671,64.62 15.255,64.364 14.857,64.08 14.496,63.822 14.15,63.564 13.802,63.288 13.31,62.897 12.85,62.481 12.388,62.058 11.058,60.673 9.841,59.163 8.657,57.706 l 0.196,-0.244 c 0.133,-0.025 0.192,-0.126 0.278,-0.216 0.215,-0.224 0.418,-0.452 0.64,-0.671 0.659,-0.65 1.341,-1.28 2.026,-1.903 0.593,-0.539 1.175,-1.083 1.73,-1.661 0.141,-0.147 0.276,-0.297 0.415,-0.446 0.075,-0.08 0.155,-0.162 0.223,-0.247 0.246,-0.309 0.527,-0.613 0.745,-0.943 0.097,-0.146 0.214,-0.293 0.302,-0.442 0.096,-0.161 0.191,-0.327 0.293,-0.484 0.077,-0.129 0.04,-0.296 -0.094,-0.375 0.094,0.211 0.1,0.224 0.107,0.237 0.088,0.188 0.313,0.269 0.501,0.181 0.188,-0.088 0.269,-0.313 0.181,-0.501 -0.138,-0.278 -0.269,-0.559 -0.401,-0.84 -0.326,-0.692 -0.674,-1.374 -0.995,-2.07 -0.305,-0.662 -0.579,-1.322 -0.853,-1.996 -0.105,-0.258 -0.206,-0.523 -0.301,-0.791 0.161,-0.07 0.279,-0.226 0.291,-0.413 0.016,-0.266 -0.186,-0.496 -0.452,-0.512 -0.048,-0.003 -0.096,-0.005 -0.144,-0.006 -0.01,-0.035 -0.02,-0.07 -0.03,-0.104 -0.068,-0.236 -0.126,-0.476 -0.194,-0.71 -0.064,-0.219 -0.122,-0.477 -0.162,-0.702 -0.029,-0.138 -0.166,-0.225 -0.304,-0.196 -0.138,0.029 -0.225,0.166 -0.196,0.304 0.103,0.472 0.216,0.934 0.343,1.394 -0.152,-10e-4 -0.304,-0.002 -0.455,0 l -0.245,-0.472 c -0.04,-0.078 -0.139,-0.109 -0.217,-0.069 -0.078,0.04 -0.109,0.139 -0.069,0.217 0.058,0.108 0.115,0.218 0.17,0.329 -1.259,0.027 -2.52,0.142 -3.773,0.257 C 6.516,43.575 4.818,43.494 3.12,43.43 3.057,43.427 2.999,43.446 2.952,43.48 2.925,43.451 2.9,43.42 2.876,43.388 2.945,43.355 2.978,43.274 2.954,43.201 2.492,41.831 2.264,40.37 2.076,38.938 2.019,38.508 1.979,38.077 1.937,37.645 c 0,-0.082 0,-0.164 10e-4,-0.246 0.004,-0.874 0.05,-1.779 0.136,-2.65 0.073,-0.748 0.145,-1.548 0.333,-2.293 l 0.154,-0.484 0.573,-0.078 c 0.23,-0.031 0.479,-0.082 0.707,-0.131 0.658,-0.142 1.315,-0.277 1.972,-0.433 0.424,-0.101 0.864,-0.192 1.283,-0.306 1.764,-0.479 3.686,-0.95 5.523,-0.923 0.056,0 0.113,0.001 0.169,0.004 -0.002,0.054 -0.003,0.109 -0.004,0.165 -0.007,0.331 0.004,0.652 0.006,0.981 0,0.067 0.108,0.111 0.137,-0.001 0,-0.179 0.006,-0.362 0.017,-0.546 0.043,0.346 0.535,0.439 0.689,0.118 l 0.037,-0.077 0.006,-0.028 0.041,-0.179 c 0.015,-0.025 0.045,-0.057 0.055,-0.084 0.011,-0.029 0.015,-0.076 0.022,-0.108 l 0.161,-0.651 0.101,-0.321 c 0.066,-0.219 0.13,-0.438 0.194,-0.657 l 0.091,-0.303 0.384,-1.068 c 0.156,-0.416 0.315,-0.832 0.47,-1.248 0.079,-0.213 0.341,-0.854 0.324,-1.041 -0.005,-0.049 -0.018,-0.095 -0.038,-0.136 l -0.066,-0.092 0.025,-0.052 c 0.104,-0.203 0.216,-0.402 0.335,-0.596 0.058,-0.099 0.042,-0.222 -0.031,-0.302 0.034,-0.042 0.068,-0.085 0.103,-0.128 0.181,-0.228 0.328,-0.483 0.492,-0.723 0.097,-0.099 0.096,-0.26 -0.003,-0.357 -0.099,-0.097 -0.26,-0.096 -0.357,0.003 -0.17,0.107 -0.375,0.239 -0.525,0.371 -0.067,0.058 -0.133,0.121 -0.197,0.188 -0.274,-0.241 -0.539,-0.483 -0.8,-0.74 -0.458,-0.451 -0.861,-0.944 -1.281,-1.428 -0.44,-0.506 -0.841,-1.052 -1.279,-1.559 -0.099,-0.115 -0.197,-0.228 -0.295,-0.339 0.501,0.432 0.988,0.885 1.472,1.344 0.597,0.565 1.213,1.118 1.803,1.69 0.138,0.128 0.354,0.12 0.482,-0.018 0.128,-0.138 0.12,-0.354 -0.018,-0.482 C 14.125,20.577 12.91,19.407 11.599,18.393 11.158,18.052 10.718,17.742 10.257,17.43 10.001,17.256 9.731,17.093 9.456,16.941 9.451,16.885 9.449,16.831 9.451,16.781 9.455,16.63 9.46,16.512 9.475,16.394 c 0.727,-0.821 1.494,-1.611 2.28,-2.372 0.522,-0.506 1.049,-1.013 1.59,-1.499 0.299,-0.269 0.585,-0.558 0.879,-0.833 0.108,-0.102 0.216,-0.203 0.325,-0.304 0.222,-0.162 0.444,-0.325 0.664,-0.489 0.145,-0.123 0.307,-0.252 0.454,-0.388 0.337,-0.313 0.646,-0.672 0.954,-1.014 0.182,-0.202 0.387,-0.413 0.559,-0.621 0.143,-0.173 0.321,-0.317 0.482,-0.47 0.021,-0.021 0.063,-0.053 0.101,-0.08 l 0.063,-0.034 0.113,0.021 c 0.192,0.063 0.428,0.206 0.545,0.285 0.564,0.382 1.085,0.782 1.602,1.228 0.423,0.364 0.836,0.732 1.248,1.105 -0.064,0.043 -0.126,0.086 -0.188,0.127 -0.286,0.187 -0.581,0.37 -0.872,0.55 -0.887,0.549 -1.797,1.13 -2.522,1.887 -0.032,0.031 -0.032,0.083 -10e-4,0.115 0.031,0.032 0.083,0.032 0.115,10e-4 0.772,-0.807 1.743,-1.358 2.706,-1.911 0.249,-0.143 0.51,-0.286 0.753,-0.438 0.073,-0.046 0.145,-0.093 0.218,-0.14 0.152,0.139 0.305,0.28 0.458,0.421 0.327,0.302 0.643,0.614 0.958,0.926 -0.426,0.27 -0.854,0.539 -1.29,0.794 -1.129,0.657 -2.173,1.369 -2.891,2.484 -0.03,0.044 -0.019,0.107 0.025,0.137 0.044,0.03 0.107,0.019 0.137,-0.025 0.476,-0.748 1.122,-1.229 1.844,-1.717 0.479,-0.324 0.982,-0.602 1.481,-0.894 0.31,-0.182 0.617,-0.367 0.927,-0.549 0.068,0.067 0.137,0.134 0.206,0.202 0.215,0.21 0.42,0.43 0.627,0.647 -0.567,0.371 -1.137,0.786 -1.668,1.199 -0.665,0.517 -1.29,1.024 -1.887,1.616 -0.022,0.021 -0.022,0.057 -10e-4,0.079 0.021,0.022 0.057,0.022 0.079,10e-4 0.707,-0.72 1.588,-1.384 2.414,-1.953 0.393,-0.271 0.793,-0.54 1.197,-0.801 0.018,0.018 0.035,0.036 0.053,0.054 0.173,0.178 0.41,0.422 0.547,0.627 0.143,0.213 0.305,0.257 0.476,0.224 -0.316,0.23 -0.63,0.463 -0.939,0.701 -0.879,0.675 -1.768,1.415 -2.497,2.253 -0.03,0.033 -0.028,0.085 0.005,0.115 0.033,0.03 0.085,0.028 0.115,-0.005 1.184,-1.363 2.783,-2.426 4.283,-3.444 0.017,0.002 0.034,-0.003 0.048,-0.014 0.154,-0.144 0.374,-0.224 0.578,-0.266 0.105,-0.021 0.255,-0.013 0.336,-0.087 0.036,-0.033 0.104,-0.074 0.146,-0.102 l 0.385,-0.235 c 0.018,0.022 0.038,0.041 0.059,0.059 -0.094,0.046 -0.187,0.093 -0.281,0.14 -0.304,0.152 -0.612,0.305 -0.908,0.471 -0.343,0.193 -0.702,0.371 -1.038,0.577 -0.08,0.045 -0.109,0.148 -0.064,0.228 0.045,0.08 0.148,0.109 0.228,0.064 0.21,-0.129 0.434,-0.241 0.649,-0.36 0.46,-0.255 0.938,-0.483 1.415,-0.706 0.046,-0.022 0.092,-0.044 0.14,-0.065 -0.425,0.421 -0.848,0.843 -1.279,1.253 -0.548,0.521 -1.09,1.05 -1.653,1.555 -0.273,0.245 -0.551,0.495 -0.831,0.732 -0.272,0.23 -0.554,0.451 -0.823,0.685 -0.033,0.027 -0.037,0.077 -0.01,0.11 0.027,0.033 0.077,0.037 0.11,0.01 0.858,-0.704 1.708,-1.421 2.529,-2.169 0.92,-0.839 1.831,-1.694 2.76,-2.523 0.996,-0.402 2.075,-0.734 3.116,-0.863 -0.058,0.034 -0.117,0.069 -0.176,0.105 -0.351,0.212 -0.734,0.496 -1.046,0.763 -0.246,0.211 -0.5,0.413 -0.736,0.637 -0.448,0.424 -0.876,0.854 -1.314,1.289 -0.434,0.431 -0.859,0.871 -1.298,1.297 -0.145,0.141 -0.3,0.296 -0.452,0.429 -0.251,0.219 -0.5,0.433 -0.754,0.649 l 0.042,0.052 c 0.385,-0.331 0.772,-0.649 1.141,-1 0.601,-0.571 1.191,-1.158 1.797,-1.725 1.073,-1.004 2.189,-1.983 3.556,-2.566 0.074,-0.035 0.105,-0.126 0.07,-0.2 -0.023,-0.049 -0.07,-0.079 -0.12,-0.084 0,-0.014 -10e-4,-0.028 -0.002,-0.042 -0.022,-0.172 -0.182,-0.294 -0.354,-0.272 -0.184,0.02 -0.37,0.055 -0.556,0.096 0.01,-0.732 0.056,-1.467 0.037,-2.201 -0.001,-0.036 -0.002,-0.072 -0.003,-0.108 0.971,-0.924 1.98,-1.801 3.007,-2.666 1.595,-1.347 3.267,-2.628 4.962,-3.858 0.123,0.01 0.247,0.02 0.372,0.032 0.444,0.04 0.902,0.089 1.353,0.152 -0.241,0.16 -0.482,0.324 -0.711,0.493 -1.199,0.881 -2.4,1.76 -3.545,2.711 -0.706,0.586 -1.41,1.172 -2.109,1.767 -0.899,0.766 -1.777,1.561 -2.654,2.352 -0.023,0.02 -0.025,0.058 -0.005,0.081 0.02,0.023 0.058,0.025 0.081,0.005 2.027,-1.849 4.157,-3.61 6.377,-5.223 0.793,-0.576 1.597,-1.129 2.411,-1.673 0.217,-0.146 0.435,-0.291 0.654,-0.436 0.078,0.013 0.157,0.027 0.235,0.042 0.139,0.019 0.269,-0.079 0.288,-0.218 0.007,-0.054 -0.003,-0.106 -0.026,-0.152 0.185,-0.121 0.371,-0.241 0.558,-0.36 z m 0.947,0.104 0.082,0.012 c 0.05,0.008 0.099,0.017 0.147,0.026 -0.064,0.05 -0.128,0.099 -0.192,0.149 z M 37.284,3.195 C 37.046,3.347 36.807,3.499 36.568,3.65 34.909,4.694 33.183,5.896 31.856,7.351 31.829,7.38 31.83,7.427 31.859,7.454 31.888,7.481 31.935,7.48 31.962,7.451 32.35,7.049 32.744,6.625 33.182,6.276 33.329,6.159 33.471,6.034 33.619,5.917 33.853,5.732 34.092,5.56 34.332,5.383 35.057,4.848 35.843,4.396 36.604,3.915 36.987,3.672 37.382,3.439 37.772,3.204 38.265,3.216 38.76,3.24 39.258,3.274 38.402,3.935 37.559,4.612 36.722,5.293 35.846,6.006 34.981,6.737 34.132,7.482 33.289,8.221 32.455,8.966 31.644,9.738 31.63,9.118 31.625,8.496 31.613,7.876 31.597,7.102 31.567,6.327 31.531,5.551 31.995,5.289 32.455,5.004 32.908,4.725 33.718,4.223 34.501,3.707 35.31,3.228 35.968,3.199 36.625,3.187 37.284,3.195 Z m 6.995,0.36 0.127,1.512 0.031,0.469 -0.045,-0.211 C 44.272,4.793 44.147,4.264 44.029,3.733 44.112,3.671 44.195,3.609 44.278,3.548 Z M 30.992,9.063 c 0.025,0.68 0.042,1.356 0.041,2.036 0,0.393 -0.019,0.785 -0.026,1.179 -0.126,0.031 -0.252,0.066 -0.378,0.104 0.043,-0.052 0.068,-0.12 0.066,-0.192 -0.004,-0.052 -0.006,-0.104 -0.009,-0.155 0.08,-0.079 0.131,-0.187 0.121,-0.299 -0.011,-0.113 -0.047,-0.211 -0.133,-0.283 0,-0.235 0.005,-0.47 0.01,-0.706 0.013,-0.657 0.052,-1.327 0.106,-1.982 0.04,-0.488 0.07,-0.976 0.102,-1.464 0.042,0.586 0.078,1.173 0.1,1.762 z m 27.004,0.062 c 0.025,0.009 0.05,0.019 0.075,0.029 -0.004,0.002 -0.007,0.004 -0.01,0.006 -0.005,0.002 -0.01,0.004 -0.014,0.006 -0.024,-0.016 -0.048,-0.033 -0.071,-0.049 0.008,0.003 0.014,0.005 0.02,0.008 z m 1.837,1.08 C 59.76,10.246 59.687,10.286 59.614,10.327 59.393,10.156 59.169,9.988 58.941,9.825 58.748,9.686 58.558,9.542 58.367,9.399 58.376,9.362 58.375,9.321 58.362,9.283 c 0.519,0.247 1.012,0.574 1.471,0.922 z M 57.218,9.36 57.275,9.405 c 0.041,0.031 0.084,0.063 0.127,0.094 -0.375,0.203 -0.74,0.418 -1.097,0.644 z m -40.644,0.852 c -0.27,0.227 -0.552,0.463 -0.846,0.657 -0.109,0.072 -0.229,0.126 -0.335,0.194 -0.116,0.075 -0.319,0.138 -0.452,0.188 -0.027,0.009 -0.041,0.041 -0.032,0.068 0.009,0.027 0.041,0.041 0.068,0.032 0.143,-0.053 0.286,-0.102 0.423,-0.167 0.433,-0.204 0.859,-0.505 1.242,-0.791 0.335,-0.25 0.642,-0.44 1.012,-0.621 0.097,-0.048 0.248,-0.115 0.351,-0.139 0.072,-0.025 0.111,-0.106 0.086,-0.178 -0.025,-0.072 -0.106,-0.111 -0.178,-0.086 -0.451,0.097 -1,0.557 -1.339,0.843 z m -2.028,0.106 c -0.391,0.283 -0.791,0.565 -1.148,0.836 0.251,-0.32 0.558,-0.577 0.877,-0.818 0.141,-0.107 0.286,-0.224 0.437,-0.317 0.117,-0.072 0.226,-0.142 0.338,-0.223 0.131,-0.096 0.256,-0.193 0.379,-0.292 -0.296,0.268 -0.59,0.54 -0.883,0.814 z m 43.275,-0.52 c 0.391,0.29 0.776,0.589 1.159,0.891 -0.224,0.13 -0.446,0.263 -0.665,0.402 -2.799,1.766 -5.384,3.981 -7.847,6.184 -1.021,0.913 -2.03,1.841 -3.044,2.763 -0.58,0.527 -1.174,1.044 -1.747,1.578 l -0.003,0.067 0.067,0.003 c 0.544,-0.506 1.111,-1.001 1.667,-1.495 0.923,-0.822 1.842,-1.648 2.777,-2.457 1.332,-1.152 2.683,-2.285 4.087,-3.348 0.63,-0.477 1.267,-0.934 1.914,-1.388 0.809,-0.568 1.645,-1.075 2.488,-1.588 0.228,-0.14 0.46,-0.279 0.694,-0.415 0.422,0.336 0.842,0.674 1.257,1.019 -0.032,0.025 -0.063,0.051 -0.094,0.077 -0.547,0.449 -1.099,0.89 -1.642,1.345 -0.791,0.664 -1.577,1.334 -2.363,2.004 -1.003,0.855 -2.011,1.709 -3.007,2.571 -0.414,0.358 -0.841,0.703 -1.261,1.054 -1.215,1.015 -2.446,1.992 -3.709,2.946 -0.322,0.243 -0.655,0.477 -0.98,0.717 -0.013,0.009 -0.024,0.02 -0.033,0.032 -1.084,-0.697 -2.249,-1.241 -3.473,-1.645 0.243,-0.216 0.493,-0.425 0.736,-0.642 0.286,-0.257 0.57,-0.518 0.854,-0.777 0.428,-0.389 0.849,-0.793 1.268,-1.192 0.634,-0.602 1.27,-1.202 1.9,-1.808 0.462,-0.446 0.931,-0.888 1.405,-1.323 0.005,0.062 0.029,0.122 0.075,0.171 0.106,0.114 0.287,0.121 0.401,0.015 1.861,-1.73 3.835,-3.371 6.012,-4.69 0.175,-0.113 0.226,-0.348 0.113,-0.523 -0.006,-0.008 -0.011,-0.016 -0.017,-0.023 0.321,-0.191 0.651,-0.376 0.98,-0.548 0.01,0.008 0.021,0.015 0.031,0.023 z m -2.743,0.762 c -1.147,1.123 -2.31,2.22 -3.489,3.309 -0.021,0.018 -0.036,0.04 -0.027,0.069 -0.542,0.421 -1.037,0.892 -1.525,1.366 -1.458,1.412 -2.885,2.853 -4.359,4.248 -0.557,0.526 -1.133,1.023 -1.702,1.534 -0.155,-0.05 -0.31,-0.098 -0.466,-0.143 -0.446,-0.213 -0.9,-0.406 -1.364,-0.578 2.187,-2.027 4.487,-3.957 6.788,-5.853 0.029,0.011 0.058,0.023 0.088,0.035 l 0.182,0.08 0.361,0.197 c 0.004,0.002 0.008,0.004 0.012,0.006 -0.026,0.124 0.018,0.257 0.125,0.34 0.148,0.114 0.362,0.086 0.476,-0.062 0.022,-0.032 0.044,-0.063 0.066,-0.093 0.02,-0.008 0.037,-0.022 0.056,-0.031 0.158,-0.078 0.253,-0.224 0.266,-0.384 0.777,-0.95 1.717,-1.765 2.66,-2.543 0.475,-0.392 0.968,-0.764 1.445,-1.156 0.197,-0.163 0.393,-0.327 0.577,-0.505 -0.058,0.053 -0.114,0.108 -0.17,0.164 z m 5.106,-0.08 c 0.395,0.319 0.771,0.651 1.138,0.999 -0.04,0.031 -0.081,0.062 -0.121,0.094 -0.004,0.003 -0.008,0.006 -0.013,0.009 -0.156,-0.13 -0.314,-0.258 -0.472,-0.384 -0.236,-0.188 -0.47,-0.376 -0.706,-0.562 0.021,-0.011 0.042,-0.022 0.063,-0.033 0.051,-0.029 0.087,-0.076 0.105,-0.128 0.002,0.001 0.004,0.003 0.006,0.005 z m -42.871,1.409 c -0.265,0.156 -0.531,0.338 -0.773,0.527 -0.138,0.107 -0.293,0.223 -0.413,0.35 l -0.003,0.067 0.067,0.003 c 0.134,-0.145 0.332,-0.284 0.49,-0.401 0.104,-0.077 0.214,-0.159 0.326,-0.223 0.092,-0.052 0.183,-0.114 0.274,-0.169 0.105,-0.063 0.22,-0.119 0.327,-0.179 0.24,-0.134 0.506,-0.251 0.758,-0.363 0.318,-0.141 0.658,-0.28 0.986,-0.394 0.058,-0.023 0.086,-0.091 0.063,-0.149 -0.023,-0.058 -0.091,-0.086 -0.149,-0.063 -0.671,0.279 -1.326,0.625 -1.953,0.994 z m 46.014,1.62 c -0.002,0.002 -0.005,0.004 -0.007,0.006 -0.067,-0.067 -0.136,-0.136 -0.205,-0.203 -0.486,-0.472 -0.991,-0.934 -1.509,-1.379 0.034,-0.026 0.069,-0.053 0.103,-0.079 0.552,0.54 1.095,1.086 1.618,1.655 z m -0.548,0.445 c -0.164,0.131 -0.329,0.263 -0.49,0.398 -0.234,0.195 -0.477,0.376 -0.716,0.564 -0.791,0.623 -1.61,1.203 -2.424,1.795 -0.745,0.542 -1.513,1.063 -2.27,1.589 -2.61,1.812 -5.232,3.602 -7.578,5.799 -0.002,-0.003 -0.004,-0.005 -0.006,-0.006 -0.332,-0.294 -0.673,-0.57 -1.62,-1.131 0.024,0.038 0.05,0.028 0.074,0.012 0.342,-0.253 0.688,-0.501 1.03,-0.754 0.555,-0.411 1.098,-0.837 1.647,-1.256 1.048,-0.8 2.065,-1.652 3.088,-2.483 1.259,-1.023 2.496,-2.077 3.754,-3.102 0.923,-0.752 1.845,-1.506 2.781,-2.242 0.292,-0.23 0.59,-0.452 0.883,-0.681 0.037,-0.03 0.075,-0.059 0.113,-0.089 0.597,0.509 1.179,1.035 1.734,1.587 z M 30.331,12.476 c -0.239,0.079 -0.478,0.167 -0.713,0.259 0.008,-0.008 0.016,-0.015 0.022,-0.021 0.089,-0.023 0.177,-0.042 0.266,-0.06 0.14,-0.031 0.251,-0.121 0.313,-0.24 0.032,0.029 0.07,0.05 0.112,0.062 z m 0.089,0.011 c -0.031,0 -0.06,-0.003 -0.089,-0.011 0.1,-0.033 0.199,-0.064 0.298,-0.094 -0.05,0.061 -0.125,0.101 -0.209,0.105 z m 33.332,2.497 c 0.128,0.141 0.349,0.152 0.49,0.024 0.117,-0.107 0.144,-0.279 0.076,-0.415 0.219,0.238 0.439,0.477 0.657,0.718 -0.976,0.687 -1.926,1.409 -2.909,2.091 -0.461,0.32 -0.937,0.622 -1.403,0.935 -1.249,0.839 -2.513,1.651 -3.776,2.469 -2.189,1.417 -4.382,2.833 -6.441,4.434 -0.014,-0.011 -0.029,-0.023 -0.043,-0.034 -0.336,-0.383 -0.696,-0.743 -1.053,-1.064 0.135,-0.121 0.271,-0.24 0.406,-0.358 0.763,-0.672 1.576,-1.319 2.398,-1.917 0.484,-0.352 0.965,-0.708 1.457,-1.05 2.066,-1.435 4.199,-2.779 6.291,-4.177 1.002,-0.67 1.992,-1.365 2.951,-2.096 0.096,-0.074 0.192,-0.148 0.288,-0.222 0.208,0.216 0.412,0.436 0.611,0.662 z m 1.656,0.807 c 0.042,0.047 0.085,0.094 0.128,0.142 -0.048,0.064 -0.083,0.139 -0.097,0.224 -0.011,0.079 -0.009,0.175 -0.03,0.251 -0.041,0.149 -0.073,0.301 -0.126,0.446 -0.128,0.342 -0.268,0.659 -0.425,0.965 -0.232,0.137 -0.458,0.298 -0.679,0.45 -0.304,0.209 -0.609,0.417 -0.912,0.628 -1.259,0.878 -2.486,1.827 -3.699,2.767 -0.166,0.127 -0.331,0.256 -0.496,0.384 -0.096,-0.077 -0.236,-0.078 -0.332,0.005 -0.09,0.076 -0.115,0.202 -0.069,0.305 -1.822,1.41 -3.655,2.82 -5.524,4.162 -0.307,0.22 -0.617,0.438 -0.928,0.655 -0.195,-0.295 -0.403,-0.573 -0.617,-0.815 -0.325,-0.368 -0.667,-0.711 -1.039,-1.023 0.88,-0.671 1.787,-1.298 2.708,-1.914 1.008,-0.676 2.041,-1.309 3.074,-1.946 1.147,-0.707 2.316,-1.39 3.454,-2.109 0.433,-0.274 0.868,-0.547 1.302,-0.819 0.309,-0.193 0.611,-0.409 0.914,-0.612 0.788,-0.526 1.575,-1.08 2.329,-1.653 0.295,-0.225 0.577,-0.478 0.863,-0.717 0.067,0.075 0.134,0.149 0.201,0.224 z m -54.627,3.258 c 0.241,0.265 0.473,0.546 0.699,0.832 -0.056,0.006 -0.11,0.029 -0.154,0.07 -0.08,0.072 -0.106,0.183 -0.077,0.278 -0.51,-0.614 -0.973,-1.248 -1.356,-1.97 0.335,0.202 0.614,0.488 0.888,0.79 z m 48.695,3.445 c -0.073,-0.082 -0.146,-0.163 -0.219,-0.243 0.452,-0.326 0.907,-0.651 1.363,-0.966 0.271,-0.189 0.542,-0.377 0.813,-0.566 -0.668,0.574 -1.323,1.163 -1.957,1.775 z M 43.468,21.418 c 0.084,0.025 0.168,0.052 0.252,0.079 1.32,0.689 2.549,1.562 3.658,2.552 -0.846,-0.621 -1.741,-1.163 -2.686,-1.627 -0.279,-0.138 -0.561,-0.267 -0.843,-0.388 -0.435,-0.327 -0.984,-0.606 -1.45,-0.813 -0.158,-0.07 -0.315,-0.135 -0.473,-0.194 0.518,0.109 1.031,0.235 1.542,0.391 z M 38.42,21.063 c 0.494,0.046 1.033,0.12 1.518,0.223 0.605,0.128 1.233,0.269 1.818,0.468 0.286,0.097 0.57,0.192 0.855,0.293 0.279,0.099 0.575,0.221 0.854,0.347 0.07,0.045 0.139,0.09 0.209,0.134 0.359,0.225 0.745,0.43 1.093,0.669 0.025,0.023 0.065,0.021 0.088,-0.004 0.023,-0.025 0.021,-0.065 -0.004,-0.088 -0.011,-0.015 -0.021,-0.029 -0.031,-0.043 0.172,0.098 0.35,0.191 0.52,0.294 0.474,0.285 0.937,0.588 1.384,0.915 0.162,0.119 0.343,0.244 0.495,0.374 0.335,0.286 0.68,0.558 1.012,0.85 0.289,0.254 0.563,0.534 0.85,0.791 0.009,0.008 0.018,0.016 0.027,0.024 -0.151,0.127 -0.3,0.256 -0.445,0.388 -0.029,0.025 -0.032,0.07 -0.007,0.099 0.025,0.029 0.07,0.032 0.099,0.007 0.151,-0.135 0.306,-0.267 0.462,-0.397 0.418,0.375 0.836,0.748 1.245,1.133 0.016,0.019 0.044,0.026 0.067,0.018 1.018,1.422 1.854,2.969 2.459,4.611 0.174,0.768 0.298,1.548 0.374,2.334 -0.065,0.046 -0.129,0.093 -0.193,0.14 -0.032,0.022 -0.04,0.066 -0.018,0.098 0.022,0.032 0.066,0.04 0.098,0.018 0.042,-0.03 0.085,-0.06 0.128,-0.089 0.108,1.238 0.097,2.489 -0.024,3.724 -0.15,0.705 -0.338,1.398 -0.559,2.072 -0.324,0.986 -0.732,1.937 -1.202,2.851 0.254,-0.577 0.471,-1.168 0.643,-1.788 0.045,-0.163 0.097,-0.338 0.133,-0.503 0.045,-0.202 0.082,-0.413 0.133,-0.613 0.006,-0.023 -0.007,-0.048 -0.03,-0.054 -0.023,-0.006 -0.048,0.007 -0.054,0.03 -0.2,0.534 -0.404,1.057 -0.654,1.571 -0.571,1.172 -1.213,2.257 -1.961,3.312 -0.253,0.269 -0.568,0.528 -0.842,0.78 -0.667,0.611 -1.351,1.188 -2.032,1.783 -0.452,0.395 -0.959,0.847 -1.329,1.321 -0.052,0.06 -0.045,0.153 0.015,0.205 0.06,0.052 0.153,0.045 0.205,-0.015 0.372,-0.48 0.879,-0.912 1.337,-1.308 0.528,-0.458 1.086,-0.883 1.612,-1.343 -0.404,0.482 -0.833,0.939 -1.262,1.404 -0.386,0.418 -0.825,0.817 -1.25,1.196 -1.089,0.971 -2.333,1.862 -3.642,2.593 0.362,-0.432 0.726,-0.863 1.09,-1.292 0.468,-0.553 0.938,-1.116 1.428,-1.65 0.08,-0.095 0.067,-0.238 -0.028,-0.318 -0.095,-0.08 -0.238,-0.067 -0.318,0.028 -0.807,0.999 -1.591,2.01 -2.4,3.007 -0.121,0.031 -0.469,0.216 -0.566,0.259 -0.501,0.218 -1.019,0.44 -1.511,0.676 -0.669,0.32 -1.436,0.549 -2.209,0.686 -0.462,0.026 -0.925,10e-4 -1.386,-0.005 -0.091,-0.002 -0.169,0.067 -0.177,0.156 -0.076,10e-4 -0.151,10e-4 -0.227,10e-4 0.598,-0.718 1.281,-1.38 1.958,-1.998 0.79,-0.723 1.585,-1.435 2.362,-2.171 0.091,-0.094 0.089,-0.246 -0.005,-0.337 -0.094,-0.091 -0.246,-0.089 -0.337,0.005 -0.195,0.213 -0.387,0.428 -0.579,0.644 -0.337,0.38 -0.706,0.75 -1.056,1.118 -0.846,0.888 -1.726,1.771 -2.493,2.737 -0.767,-0.014 -1.528,-0.104 -2.277,-0.261 0.498,-0.726 1.089,-1.318 1.723,-1.928 0.237,-0.228 0.487,-0.44 0.737,-0.652 0.627,-0.531 1.287,-1.027 1.989,-1.453 0.104,-0.067 0.133,-0.208 0.066,-0.312 -0.067,-0.104 -0.208,-0.133 -0.312,-0.066 -0.382,0.24 -0.763,0.534 -1.115,0.816 -0.508,0.406 -1.001,0.832 -1.468,1.287 -0.58,0.565 -1.125,1.121 -1.614,1.766 -0.104,0.137 -0.218,0.284 -0.309,0.43 -0.009,0.012 -0.016,0.026 -0.021,0.04 -0.772,-0.182 -1.529,-0.435 -2.263,-0.746 1.144,-1.179 2.363,-2.283 3.632,-3.325 0.472,-0.388 0.973,-0.746 1.464,-1.109 0.093,-0.073 0.11,-0.21 0.037,-0.303 -0.073,-0.093 -0.21,-0.11 -0.303,-0.037 -0.79,0.622 -1.543,1.326 -2.275,2.015 -0.921,0.865 -1.819,1.783 -2.697,2.697 -0.006,-0.002 -0.012,-0.005 -0.017,-0.007 -0.704,-0.31 -1.395,-0.675 -2.062,-1.092 0.742,-0.9 1.601,-1.627 2.525,-2.366 0.432,-0.346 0.874,-0.678 1.31,-1.019 0.187,-0.146 0.385,-0.287 0.568,-0.437 0.213,-0.175 0.438,-0.356 0.658,-0.522 0.082,-0.07 0.092,-0.194 0.022,-0.276 -0.07,-0.082 -0.194,-0.092 -0.276,-0.022 -0.204,0.177 -0.403,0.364 -0.606,0.543 -0.558,0.492 -1.127,0.971 -1.688,1.461 -0.938,0.818 -1.835,1.617 -2.615,2.574 -0.55,-0.349 -1.084,-0.734 -1.593,-1.149 0.163,0.072 0.332,0.141 0.512,0.208 0.327,0.122 0.668,0.201 1.003,0.297 l 0.049,-0.021 -0.021,-0.049 c -0.276,-0.169 -0.553,-0.332 -0.828,-0.503 -0.155,-0.097 -0.307,-0.196 -0.459,-0.297 0.558,-0.617 1.139,-1.205 1.777,-1.76 0.231,-0.201 0.476,-0.413 0.725,-0.592 0.247,-0.177 0.495,-0.372 0.753,-0.532 0.328,-0.203 0.647,-0.404 0.983,-0.595 0.102,-0.063 0.134,-0.199 0.071,-0.301 -0.063,-0.102 -0.199,-0.134 -0.301,-0.071 -0.342,0.206 -0.653,0.457 -0.978,0.685 -0.092,0.064 -0.181,0.138 -0.268,0.209 -0.352,0.286 -0.677,0.56 -1.008,0.872 -0.673,0.634 -1.289,1.304 -1.89,1.994 -0.259,-0.175 -0.516,-0.351 -0.776,-0.521 -0.272,-0.178 -0.536,-0.366 -0.792,-0.566 0.482,-0.604 1.021,-1.131 1.573,-1.672 0.414,-0.406 0.875,-0.806 1.331,-1.165 0.25,-0.197 0.501,-0.4 0.765,-0.578 0.067,-0.05 0.08,-0.147 0.03,-0.214 -0.05,-0.067 -0.147,-0.08 -0.214,-0.03 -0.93,0.693 -1.788,1.554 -2.59,2.387 -0.35,0.362 -0.677,0.751 -0.991,1.144 -0.223,-0.128 -0.415,-0.295 -0.6,-0.468 -0.032,-0.03 -0.063,-0.059 -0.095,-0.089 -0.228,-0.279 -0.445,-0.565 -0.651,-0.858 0.358,-0.381 0.781,-0.724 1.164,-1.039 0.377,-0.311 0.782,-0.605 1.149,-0.925 0.155,-0.135 0.308,-0.271 0.461,-0.408 0.141,-0.126 0.279,-0.283 0.409,-0.421 0.055,-0.062 0.049,-0.16 -0.013,-0.215 -0.062,-0.055 -0.16,-0.049 -0.215,0.013 -0.093,0.099 -0.183,0.214 -0.274,0.317 -0.093,0.105 -0.196,0.199 -0.292,0.3 -0.121,0.128 -0.266,0.246 -0.395,0.366 -0.28,0.259 -0.574,0.506 -0.863,0.755 -0.385,0.331 -0.838,0.718 -1.219,1.131 -0.466,-0.681 -0.869,-1.399 -1.198,-2.148 0.38,-0.351 0.756,-0.694 1.157,-1.023 0.763,-0.627 1.555,-1.183 2.389,-1.71 0.075,-0.05 0.096,-0.153 0.046,-0.228 -0.05,-0.075 -0.153,-0.096 -0.228,-0.046 -0.323,0.21 -0.646,0.444 -0.953,0.676 -0.395,0.299 -0.788,0.597 -1.165,0.919 -0.444,0.38 -0.89,0.75 -1.314,1.152 -0.01,0.009 -0.02,0.018 -0.03,0.028 -0.264,-0.639 -0.473,-1.299 -0.589,-1.986 0.366,-0.279 0.724,-0.565 1.082,-0.854 0.944,-0.764 1.839,-1.545 2.846,-2.231 0.064,-0.047 0.078,-0.139 0.031,-0.203 -0.047,-0.064 -0.139,-0.078 -0.203,-0.031 -1.146,0.866 -2.184,1.852 -3.281,2.777 -0.174,0.145 -0.352,0.282 -0.533,0.416 -0.035,-0.178 -0.067,-0.356 -0.093,-0.535 -0.004,-0.031 -0.035,-0.052 -0.066,-0.048 -0.031,0.004 -0.052,0.035 -0.048,0.066 0.029,0.198 0.064,0.396 0.105,0.592 -0.127,0.094 -0.254,0.186 -0.38,0.28 -0.053,-0.165 -0.102,-0.329 -0.148,-0.491 -0.049,-0.205 -0.095,-0.411 -0.126,-0.623 0.007,0.175 -0.035,-0.003 -0.113,-0.625 0.29,-0.4 0.689,-0.805 1.034,-1.128 0.49,-0.461 1.013,-0.868 1.521,-1.307 0.315,-0.272 0.633,-0.54 0.948,-0.813 0.051,-0.046 0.056,-0.127 0.01,-0.178 -0.046,-0.051 -0.127,-0.056 -0.178,-0.01 -0.156,0.136 -0.308,0.281 -0.459,0.423 -0.26,0.243 -0.547,0.48 -0.816,0.714 -0.723,0.627 -1.507,1.302 -2.1,2.075 -0.124,-0.463 -0.17,-0.837 -0.202,-1.204 -10e-4,-0.009 -10e-4,-0.009 -0.004,-0.041 -0.025,-0.302 -0.043,-0.638 -0.008,-1.113 -0.002,0.044 0.031,0.073 0.071,0.074 0.046,0.001 0.085,-0.036 0.086,-0.082 0.023,-0.155 0.048,-0.309 0.075,-0.462 0.395,-0.307 0.797,-0.619 1.17,-0.948 0.377,-0.334 0.764,-0.657 1.14,-0.992 0.527,-0.468 1.049,-0.921 1.599,-1.362 0.209,-0.168 0.441,-0.325 0.659,-0.484 0.057,-0.042 0.069,-0.124 0.027,-0.181 -0.042,-0.057 -0.124,-0.069 -0.181,-0.027 -1.222,0.888 -2.279,1.948 -3.413,2.936 -0.312,0.271 -0.63,0.532 -0.953,0.789 0.048,-0.274 0.097,-0.547 0.137,-0.821 0.051,-0.35 0.086,-0.702 0.136,-1.051 0.025,-0.181 0.052,-0.36 0.081,-0.54 0.367,-0.361 0.744,-0.709 1.141,-1.046 0.247,-0.21 0.517,-0.44 0.781,-0.627 0.189,-0.133 0.373,-0.274 0.565,-0.402 0.353,-0.236 0.707,-0.453 1.072,-0.67 0.062,-0.038 0.082,-0.122 0.044,-0.184 -0.038,-0.062 -0.122,-0.082 -0.184,-0.044 -1.239,0.729 -2.341,1.654 -3.365,2.655 0.057,-0.332 0.121,-0.664 0.192,-0.994 0.084,-0.4 0.18,-0.8 0.285,-1.198 0.08,-0.065 0.16,-0.13 0.242,-0.193 0.286,-0.224 0.572,-0.485 0.842,-0.729 0.328,-0.297 0.648,-0.601 0.975,-0.899 0.238,-0.217 0.459,-0.461 0.691,-0.686 0.05,-0.05 0.05,-0.134 0,-0.184 h -0.184 c -0.461,0.445 -0.899,0.914 -1.355,1.364 -0.279,0.275 -0.565,0.542 -0.853,0.807 -0.093,0.085 -0.189,0.171 -0.287,0.257 0.114,-0.41 0.238,-0.816 0.374,-1.214 0.129,-0.383 0.264,-0.777 0.411,-1.164 0.085,-0.154 0.172,-0.305 0.263,-0.453 0.189,-0.309 0.368,-0.622 0.574,-0.92 0.605,-0.877 1.273,-1.718 2.046,-2.454 V 26.12 h -0.062 c -0.563,0.546 -1.105,1.156 -1.577,1.782 -0.15,0.199 -0.306,0.406 -0.446,0.612 -0.094,0.139 -0.184,0.283 -0.28,0.42 -0.079,0.112 -0.155,0.23 -0.219,0.358 0.004,-0.017 0.011,-0.032 0.018,-0.046 0.09,-0.198 0.173,-0.4 0.266,-0.597 0.039,-0.085 0.079,-0.169 0.12,-0.251 0.065,0.021 0.14,-0.004 0.179,-0.063 0.363,-0.601 0.784,-1.138 1.229,-1.678 0.744,-0.905 1.675,-1.74 2.644,-2.446 0.214,-0.143 0.431,-0.282 0.65,-0.417 1.061,-0.658 2.23,-1.256 3.472,-1.693 0.188,-0.088 0.382,-0.147 0.576,-0.197 0.567,-0.148 1.174,-0.296 1.757,-0.358 0.546,-0.058 1.056,-0.099 1.606,-0.107 1.117,-0.016 2.178,0.212 3.244,0.517 0.326,0.093 0.655,0.179 0.981,0.272 0.217,0.062 0.428,0.141 0.642,0.209 l 0.055,-0.017 -0.017,-0.055 c -0.5,-0.371 -0.913,-0.655 -1.489,-0.906 -0.318,-0.138 -0.643,-0.225 -0.98,-0.303 -0.202,-0.048 -0.406,-0.091 -0.613,-0.128 0.143,0.01 0.283,0.021 0.424,0.035 z m 22.706,0.802 c -0.347,0.404 -0.664,0.872 -0.951,1.32 -0.022,0.033 -0.044,0.068 -0.066,0.103 -0.065,-0.094 -0.129,-0.189 -0.197,-0.277 -0.025,-0.032 -0.049,-0.063 -0.074,-0.094 0.293,-0.285 0.605,-0.565 0.908,-0.826 0.238,-0.207 0.475,-0.41 0.706,-0.605 -0.105,0.121 -0.216,0.249 -0.326,0.379 z M 59.1,22.892 c -0.042,0.101 -0.023,0.222 0.058,0.305 0.058,0.059 0.138,0.087 0.216,0.083 0.025,0.036 0.051,0.072 0.078,0.107 0.115,0.152 0.226,0.319 0.328,0.485 -0.098,0.18 -0.033,0.408 0.148,0.507 0.016,0.009 0.033,0.016 0.05,0.023 -0.086,0.058 -0.172,0.117 -0.259,0.175 -0.054,-0.073 -0.109,-0.147 -0.163,-0.22 -0.079,-0.108 -0.233,-0.132 -0.341,-0.053 -0.108,0.079 -0.132,0.233 -0.053,0.341 0.05,0.069 0.1,0.139 0.15,0.209 -0.371,0.254 -0.742,0.508 -1.112,0.765 -1.153,0.799 -2.293,1.618 -3.45,2.412 -0.464,0.318 -0.928,0.632 -1.393,0.944 -0.071,-0.107 -0.141,-0.213 -0.211,-0.319 -0.024,-0.048 -0.084,-0.066 -0.132,-0.042 -0.006,0.002 -0.012,0.006 -0.006,0.016 -0.188,-0.45 -0.447,-0.929 -0.735,-1.374 1.499,-1.051 2.995,-2.104 4.474,-3.185 0.649,-0.475 1.306,-0.941 1.955,-1.415 0.043,-0.032 0.087,-0.064 0.131,-0.096 0.092,0.108 0.185,0.223 0.267,0.332 z M 46.576,22.774 c 0.436,0.264 0.889,0.531 1.293,0.843 0.103,0.079 0.21,0.154 0.313,0.233 0.227,0.175 0.462,0.367 0.691,0.568 -0.067,0.062 -0.134,0.125 -0.2,0.189 -0.749,-0.721 -1.536,-1.388 -2.366,-1.99 0.092,0.052 0.182,0.104 0.269,0.157 z m -17.509,0.154 c 0.031,0.058 0.095,0.089 0.158,0.083 -0.365,0.219 -0.75,0.464 -1.084,0.721 -0.112,0.086 -0.226,0.174 -0.34,0.257 -0.189,0.138 -0.369,0.295 -0.551,0.444 -0.498,0.408 -0.979,0.87 -1.422,1.337 -0.056,0.057 -0.11,0.116 -0.165,0.175 -0.158,0.146 -0.314,0.295 -0.469,0.446 0.177,-0.264 0.361,-0.523 0.55,-0.781 0.18,-0.248 0.395,-0.478 0.588,-0.715 0.464,-0.361 0.965,-0.689 1.476,-0.97 0.096,-0.054 0.129,-0.177 0.075,-0.273 -0.028,-0.05 -0.074,-0.082 -0.124,-0.096 0.245,-0.153 0.495,-0.297 0.736,-0.421 0.039,-0.021 0.079,-0.042 0.118,-0.062 0.011,-0.001 0.023,-0.004 0.033,-0.009 0.015,-0.011 0.032,-0.022 0.048,-0.032 0.117,-0.06 0.235,-0.119 0.353,-0.177 10e-4,0.025 0.007,0.05 0.02,0.073 z M 14.78,23.804 c -0.005,0.005 -0.009,0.011 -0.014,0.017 -0.005,-0.017 -0.012,-0.034 -0.019,-0.048 0.01,0.009 0.021,0.02 0.033,0.031 z m 45.81,1.476 c -0.024,0.007 -0.048,0.016 -0.071,0.028 -0.054,0.026 -0.101,0.061 -0.138,0.104 l -0.026,0.044 -0.207,-0.292 c -0.1,-0.138 -0.2,-0.275 -0.301,-0.412 0.116,-0.073 0.231,-0.146 0.347,-0.218 0.14,0.244 0.272,0.494 0.396,0.746 z M 49.673,25.201 c 0.114,0.127 0.227,0.253 0.339,0.38 -0.075,0.059 -0.149,0.118 -0.224,0.177 -0.266,-0.296 -0.539,-0.584 -0.815,-0.858 -0.072,-0.071 -0.143,-0.142 -0.215,-0.212 0.066,-0.064 0.134,-0.129 0.203,-0.193 0.254,0.228 0.497,0.466 0.712,0.706 z m 10.787,1.318 0.296,0.487 c -0.159,0.124 -0.319,0.247 -0.478,0.372 -0.719,0.558 -1.479,1.077 -2.224,1.601 -1.156,0.812 -2.357,1.557 -3.55,2.311 -0.085,-0.259 -0.178,-0.514 -0.282,-0.77 -0.218,-0.535 -0.519,-1.019 -0.833,-1.497 0.468,-0.309 0.935,-0.618 1.403,-0.929 1.507,-1.005 3.004,-2.029 4.529,-3.006 0.036,-0.024 0.072,-0.047 0.108,-0.07 0.352,0.493 0.702,0.99 1.031,1.501 z M 50.155,25.746 c 0.228,0.266 0.448,0.562 0.653,0.847 0.201,0.28 0.412,0.563 0.62,0.837 0.048,0.064 0.096,0.13 0.143,0.196 -0.038,0.027 -0.076,0.053 -0.114,0.079 -0.074,-0.127 -0.148,-0.254 -0.221,-0.382 -0.24,-0.418 -0.538,-0.821 -0.815,-1.215 -0.023,-0.034 -0.071,-0.042 -0.105,-0.019 -0.034,0.023 -0.042,0.071 -0.019,0.105 0.13,0.185 0.272,0.371 0.397,0.559 0.108,0.163 0.214,0.329 0.311,0.488 -0.348,-0.467 -0.726,-0.93 -1.12,-1.374 0.074,-0.059 0.148,-0.117 0.222,-0.176 0.016,0.018 0.032,0.036 0.048,0.055 z m -36.169,1.018 c -0.083,0.248 -0.162,0.498 -0.239,0.749 l -0.149,0.496 -0.101,0.29 c -0.062,0.184 -0.121,0.369 -0.177,0.556 -0.066,0.218 -0.128,0.437 -0.187,0.657 l -0.014,0.05 c -0.014,-0.001 -0.028,-0.002 -0.042,-0.003 0.151,-0.901 0.41,-1.81 0.753,-2.56 0.097,-0.213 0.192,-0.439 0.303,-0.653 -0.052,0.141 -0.101,0.279 -0.147,0.418 z m 46.949,0.537 0.093,0.153 0.138,0.331 c 0.228,0.57 0.435,1.155 0.644,1.728 0.008,0.023 0.016,0.046 0.025,0.069 -1.855,0.974 -3.713,1.948 -5.521,3.003 -0.432,0.251 -0.856,0.512 -1.279,0.775 -0.088,-0.475 -0.199,-0.95 -0.334,-1.426 -0.043,-0.151 -0.087,-0.299 -0.133,-0.445 1.186,-0.743 2.39,-1.464 3.552,-2.245 0.46,-0.31 0.924,-0.611 1.381,-0.926 0.191,-0.132 0.39,-0.261 0.577,-0.398 0.106,-0.078 0.221,-0.163 0.332,-0.235 0.112,-0.072 0.23,-0.164 0.338,-0.244 0.062,-0.047 0.125,-0.093 0.187,-0.14 z m -37.777,1.741 c -0.207,0.469 -0.389,0.948 -0.567,1.429 -0.237,0.639 -0.457,1.343 -0.622,2.004 -0.044,0.172 -0.086,0.343 -0.128,0.515 -0.039,0.029 -0.078,0.059 -0.116,0.088 -0.04,0.027 -0.08,0.056 -0.121,0.084 0.176,-0.795 0.394,-1.581 0.667,-2.345 -0.172,0.304 -0.097,0.082 0.034,-0.108 0.336,-0.951 0.749,-1.866 1.248,-2.725 l 0.005,-0.008 c 0.023,-0.04 0.052,-0.089 0.39,-0.518 -0.29,0.518 -0.551,1.04 -0.79,1.584 z m 28.766,-0.897 c 0.024,0.046 0.083,0.065 0.129,0.041 0.009,-0.006 0.018,-0.013 0.025,-0.02 0.169,0.292 0.326,0.589 0.469,0.891 0.054,0.116 0.107,0.233 0.158,0.351 -0.066,0.044 -0.132,0.087 -0.198,0.131 -0.12,-0.215 -0.244,-0.427 -0.371,-0.636 -0.076,-0.124 -0.154,-0.247 -0.23,-0.363 -0.019,-0.039 -0.035,-0.072 -0.051,-0.104 -0.11,-0.219 -0.228,-0.432 -0.348,-0.643 0.04,-0.028 0.08,-0.056 0.121,-0.085 0.1,0.145 0.197,0.293 0.296,0.437 z m 1.353,2.903 c -0.031,-0.068 -0.062,-0.135 -0.093,-0.2 -0.203,-0.426 -0.42,-0.848 -0.651,-1.262 0.065,-0.043 0.129,-0.085 0.194,-0.128 0.221,0.518 0.403,1.049 0.55,1.59 z m 8.675,-1.146 c -0.024,0.041 -0.038,0.089 -0.039,0.14 -0.002,0.048 0.009,0.095 0.029,0.136 -0.012,10e-4 -0.023,10e-4 -0.034,0.002 -0.177,0 -0.32,0.145 -0.32,0.322 0,0.177 0.145,0.32 0.322,0.32 0.126,-0.003 0.25,-10e-4 0.374,0.004 0.059,0.167 0.124,0.337 0.197,0.498 0.041,0.092 0.068,0.173 0.115,0.259 -0.138,0.054 -0.276,0.109 -0.414,0.163 -0.583,0.228 -1.173,0.492 -1.741,0.757 -0.974,0.455 -1.961,0.937 -2.891,1.476 -0.312,0.181 -0.621,0.364 -0.931,0.548 -0.346,0.206 -0.661,0.434 -0.993,0.659 -0.119,0.08 -0.236,0.162 -0.353,0.244 -0.029,-0.613 -0.093,-1.223 -0.196,-1.832 0.192,-0.12 0.383,-0.241 0.575,-0.36 0.403,-0.251 0.829,-0.49 1.244,-0.722 1.242,-0.693 2.51,-1.333 3.771,-1.99 0.424,-0.222 0.847,-0.443 1.27,-0.665 0.005,0.014 0.01,0.027 0.015,0.041 z M 3.332,29.97 5.53,30.006 5.25,30.169 C 4.999,30.328 4.756,30.5 4.519,30.684 4.414,30.706 4.309,30.729 4.204,30.753 3.866,30.828 3.529,30.881 3.192,30.95 3.071,30.974 2.927,30.999 2.794,31.017 2.845,30.921 2.896,30.826 2.948,30.731 Z m 4.223,0.051 H 7.65 C 7.541,30.04 7.431,30.06 7.319,30.08 7.373,30.065 7.424,30.052 7.476,30.039 Z m 30.29,0.438 c -0.204,0.034 -0.403,0.071 -0.599,0.115 -0.026,0 -0.051,0 -0.076,10e-4 -0.289,0.004 -0.598,0.024 -0.883,0.07 -0.362,0.059 -0.724,0.115 -1.076,0.225 -1.086,0.339 -1.894,0.704 -2.678,1.532 -0.296,0.311 -0.551,0.663 -0.768,1.039 l -0.026,0.049 -0.103,0.149 c -0.167,0.276 -0.301,0.577 -0.405,0.894 l -0.091,0.406 -0.182,0.667 c -0.477,2.371 0.126,5.121 2.009,6.698 0.226,0.189 0.445,0.345 0.689,0.509 0.145,0.097 0.321,0.184 0.477,0.263 0.475,0.24 1.013,0.418 1.565,0.533 l 0.084,0.013 0.4,0.111 c 0.224,0.049 0.452,0.083 0.672,0.099 0.319,0.023 0.692,0.043 1.009,0.006 0.147,-0.017 0.301,-0.029 0.446,-0.052 0.781,-0.125 1.577,-0.396 2.26,-0.798 0.336,-0.198 0.661,-0.399 0.959,-0.654 0.376,-0.322 0.773,-0.69 1.066,-1.091 0.031,-0.043 0.07,-0.082 0.102,-0.124 0.155,-0.209 0.306,-0.434 0.442,-0.665 0.946,-0.707 1.724,-1.555 2.243,-2.654 0.135,-0.285 0.249,-0.576 0.321,-0.884 0.069,-0.294 0.026,-0.571 0.007,-0.865 -0.057,0.142 -0.132,0.288 -0.195,0.428 -0.039,0.087 -0.071,0.178 -0.11,0.264 -0.094,0.208 -0.151,0.448 -0.24,0.664 -0.158,0.383 -0.344,0.73 -0.574,1.075 -0.298,0.446 -0.668,0.861 -1.083,1.24 0.014,-0.029 0.027,-0.058 0.041,-0.087 l 0.074,-0.169 c 0.044,-0.148 0.11,-0.301 0.162,-0.448 0.105,-0.299 0.195,-0.649 0.254,-0.961 0.22,-1.155 0.183,-2.417 -0.285,-3.513 -0.114,-0.267 -0.236,-0.506 -0.376,-0.76 -0.215,-0.391 -0.532,-0.776 -0.838,-1.1 -0.902,-0.954 -2.083,-1.574 -3.345,-1.882 0.05,-0.028 0.086,-0.081 0.089,-0.143 0.004,-0.096 -0.07,-0.178 -0.166,-0.182 -0.098,-0.024 -0.206,-0.05 -0.306,-0.064 -0.261,-0.035 -0.704,0.001 -0.966,0.046 z m 25.752,0.472 c 0.231,0.006 0.462,0.016 0.693,0.028 -0.181,0.062 -0.362,0.125 -0.543,0.19 -0.131,0.046 -0.261,0.094 -0.391,0.142 -0.035,-0.131 -0.071,-0.261 -0.108,-0.388 0.115,0.013 0.231,0.024 0.349,0.028 z m 4.079,0.27 c -0.39,0.136 -0.78,0.293 -1.158,0.439 -1.464,0.564 -2.871,1.299 -4.234,2.072 -1.659,0.941 -3.257,1.993 -4.826,3.075 -0.777,0.535 -1.55,1.083 -2.316,1.64 0.02,-0.152 0.038,-0.304 0.054,-0.45 0.083,-0.803 0.112,-1.592 0.084,-2.373 0.074,-0.048 0.148,-0.096 0.223,-0.143 0.327,-0.21 0.666,-0.4 0.999,-0.598 0.788,-0.469 1.559,-0.924 2.382,-1.333 1.295,-0.645 2.638,-1.218 4.003,-1.729 0.145,0.023 0.3,-0.035 0.393,-0.145 0.624,-0.227 1.251,-0.441 1.881,-0.644 0.839,0.059 1.677,0.134 2.515,0.189 z m -27.815,0.527 c 0.419,0.174 0.81,0.352 1.186,0.611 0.089,0.061 0.19,0.119 0.272,0.188 0.09,0.076 0.189,0.148 0.283,0.22 0.072,0.056 0.15,0.132 0.217,0.196 0.305,0.289 0.547,0.563 0.787,0.909 0.063,0.09 0.129,0.182 0.18,0.279 0.055,0.104 0.123,0.206 0.174,0.311 0.177,0.368 0.386,0.896 0.44,1.309 0.027,0.206 0.078,0.412 0.082,0.62 0.004,0.24 0.008,0.464 0.005,0.705 -0.002,0.14 -0.03,0.289 -0.042,0.429 -0.026,0.296 -0.091,0.589 -0.173,0.878 l -0.273,0.842 -0.362,0.769 c -0.11,0.207 -0.246,0.397 -0.373,0.593 -0.035,0.054 -0.072,0.107 -0.11,0.159 -0.415,0.262 -0.842,0.492 -1.261,0.687 -0.325,0.151 -0.651,0.292 -0.979,0.436 -0.428,0.188 -0.869,0.326 -1.304,0.493 -0.076,0.027 -0.117,0.112 -0.09,0.188 0.027,0.076 0.112,0.117 0.188,0.09 0.192,-0.073 0.39,-0.134 0.583,-0.205 0.288,-0.107 0.571,-0.217 0.856,-0.331 0.433,-0.174 0.876,-0.37 1.285,-0.593 0.028,-0.016 0.056,-0.031 0.084,-0.046 -0.006,0.005 -0.012,0.011 -0.017,0.017 -0.611,0.6 -1.311,1.032 -2.102,1.352 l -0.522,0.149 -0.76,0.075 c -0.25,0.03 -0.504,0.021 -0.753,0.037 -0.241,0.016 -0.49,-0.017 -0.73,-0.025 -0.184,-0.006 -0.394,-0.046 -0.577,-0.073 l -0.516,-0.113 -0.657,-0.305 c -0.108,-0.056 -0.215,-0.135 -0.321,-0.198 -0.102,-0.061 -0.195,-0.149 -0.293,-0.218 -0.469,-0.33 -0.887,-0.852 -1.216,-1.32 l -0.268,-0.44 -0.348,-0.677 c -0.087,-0.179 -0.184,-0.382 -0.251,-0.569 -0.126,-0.351 -0.247,-0.676 -0.351,-1.037 -0.082,-0.285 -0.131,-0.573 -0.184,-0.864 0.009,-1.09 0.464,-2.167 1.11,-3.022 0.197,-0.261 0.39,-0.524 0.605,-0.77 0.756,-0.865 1.703,-1.566 2.755,-2.028 0.094,-0.01 0.19,-0.017 0.289,-0.022 v -0.026 l -0.212,0.015 c 0.078,-0.034 0.157,-0.066 0.236,-0.096 l 0.075,-0.014 c 0.114,-0.015 0.239,-0.018 0.355,-0.028 0.956,-0.085 2.112,0.094 2.998,0.463 z m 14.12,-0.123 c 10e-4,0.004 0.003,0.009 0.004,0.014 -0.002,0.001 -0.004,0.002 -0.006,0.003 -0.003,-0.017 -0.006,-0.034 -0.009,-0.049 0.003,0.01 0.007,0.021 0.011,0.032 z m 0.315,1.15 c 0.073,0.309 0.145,0.626 0.2,0.943 -0.089,0.059 -0.176,0.122 -0.262,0.185 -0.027,-0.697 -0.097,-1.378 -0.215,-2.049 0.009,-0.006 0.019,-0.012 0.029,-0.018 0.094,0.309 0.174,0.629 0.248,0.939 z M 34.244,32.063 c -0.914,0.746 -1.764,1.651 -2.239,2.746 -0.137,0.316 -0.273,0.614 -0.371,0.947 -0.055,0.187 -0.104,0.374 -0.076,0.569 -0.013,-0.049 -0.014,-0.1 -0.014,-0.15 l 0.002,-0.025 0.034,-0.255 c 0.036,-0.211 0.082,-0.421 0.143,-0.627 0.047,-0.161 0.105,-0.32 0.152,-0.48 0.035,-0.119 0.097,-0.251 0.145,-0.367 0.255,-0.623 0.678,-1.264 1.167,-1.727 0.151,-0.143 0.298,-0.255 0.46,-0.381 l 0.39,-0.237 0.431,-0.179 c 0.008,-0.004 0.016,-0.008 0.028,-0.008 -0.1,0.052 -0.179,0.113 -0.252,0.174 z m 37.396,0.454 c -0.301,0.155 -0.59,0.333 -0.886,0.497 -0.592,0.329 -1.2,0.726 -1.754,1.115 -0.355,0.25 -0.717,0.489 -1.067,0.747 -1.108,0.818 -2.196,1.649 -3.261,2.523 -1.43,1.173 -2.844,2.365 -4.259,3.556 -0.724,0.609 -1.46,1.201 -2.192,1.799 -0.73,0.596 -1.485,1.158 -2.235,1.727 -0.377,0.286 -0.773,0.551 -1.154,0.831 -0.021,0.014 -0.026,0.045 -0.012,0.066 0.014,0.021 0.045,0.026 0.066,0.012 0.37,-0.278 0.758,-0.535 1.13,-0.811 0.702,-0.52 1.405,-1.044 2.091,-1.585 1.509,-1.19 2.995,-2.405 4.492,-3.61 0.945,-0.761 1.897,-1.526 2.867,-2.255 0.435,-0.327 0.872,-0.662 1.315,-0.977 0.479,-0.34 0.961,-0.673 1.442,-1.009 1.319,-0.92 2.739,-1.71 4.13,-2.514 0.098,-0.051 0.135,-0.174 0.084,-0.272 -0.051,-0.098 -0.174,-0.135 -0.272,-0.084 -0.176,0.078 -0.354,0.156 -0.525,0.244 z m -49.923,1.08 c -0.05,0.169 -0.099,0.338 -0.148,0.509 -0.107,0.369 -0.195,0.751 -0.271,1.136 0.03,-0.374 0.067,-0.744 0.115,-1.111 0.045,-0.255 0.094,-0.509 0.146,-0.761 0.086,-0.059 0.173,-0.117 0.254,-0.174 0.001,-0.002 0.003,-0.003 0.006,-0.006 -0.037,0.144 -0.071,0.279 -0.102,0.407 z m 32.821,0.358 c 0.068,0.474 0.143,0.969 0.166,1.448 0.006,0.14 0.01,0.284 0.017,0.427 -0.082,0.059 -0.164,0.12 -0.245,0.18 -0.013,-0.649 -0.087,-1.281 -0.215,-1.911 0.091,-0.056 0.181,-0.112 0.273,-0.167 10e-4,0.008 0.002,0.015 0.004,0.023 z m -0.791,0.89 c 0,0.139 -0.003,0.279 -0.008,0.42 -0.023,-0.264 -0.051,-0.525 -0.083,-0.783 0.004,-0.002 0.007,-0.004 0.011,-0.007 0.027,0.122 0.054,0.246 0.08,0.37 z m 0.986,1.152 c 0.014,0.182 0.005,0.376 0.005,0.559 0,0.444 -0.016,0.89 -0.06,1.332 -0.015,0.147 -0.024,0.297 -0.039,0.444 -0.014,0.131 -0.04,0.27 -0.058,0.402 -0.006,0.038 -0.011,0.076 -0.017,0.115 -0.185,0.135 -0.369,0.271 -0.553,0.407 0.005,-0.015 0.008,-0.03 0.013,-0.044 0.037,-0.128 0.074,-0.255 0.111,-0.383 0.146,-0.506 0.236,-1.058 0.29,-1.582 0.038,-0.373 0.055,-0.738 0.053,-1.098 0.084,-0.059 0.168,-0.118 0.253,-0.176 0,0.008 10e-4,0.016 0.002,0.024 z M 72.434,37.9 c -0.021,0.354 -0.05,0.707 -0.053,1.062 -0.109,0.093 -0.217,0.189 -0.328,0.276 -0.439,0.341 -0.881,0.657 -1.333,0.982 -0.34,0.245 -0.709,0.478 -1.061,0.706 -0.52,0.336 -1.052,0.678 -1.585,0.992 -0.271,0.16 -0.555,0.325 -0.818,0.496 -0.048,0.029 -0.063,0.092 -0.034,0.14 0.029,0.048 0.092,0.063 0.14,0.034 0.258,-0.172 0.542,-0.329 0.809,-0.489 0.416,-0.249 0.832,-0.501 1.247,-0.754 0.722,-0.439 1.446,-0.901 2.141,-1.381 0.285,-0.198 0.562,-0.405 0.83,-0.624 -10e-4,0.004 -10e-4,0.005 0,0.006 -0.002,0.218 0.145,0.404 0.347,0.458 -0.039,0.203 -0.081,0.405 -0.126,0.606 -0.077,0.341 -0.155,0.709 -0.258,1.042 -0.078,0.254 -0.17,0.517 -0.242,0.772 -0.07,0.247 0.075,0.506 0.322,0.576 0.085,0.024 0.171,0.022 0.251,0 l 0.009,-0.031 -0.054,0.192 -0.809,0.087 c -0.689,0.065 -1.392,0.064 -2.084,0.1 -0.528,0.027 -1.058,0.022 -1.585,0.043 -0.889,-0.037 -1.778,-0.115 -2.659,-0.22 -0.467,-0.056 -0.936,-0.125 -1.4,-0.208 1.546,-1.254 3.088,-2.516 4.656,-3.741 1.252,-0.979 2.519,-1.975 3.83,-2.877 -0.061,0.584 -0.12,1.167 -0.153,1.755 z M 54.056,37.687 c -0.002,0.293 -0.008,0.591 -0.03,0.883 -0.02,0.247 -0.055,0.492 -0.085,0.738 -0.084,0.063 -0.169,0.125 -0.253,0.188 0.036,-0.324 0.065,-0.654 0.087,-0.987 0.059,-0.252 0.115,-0.507 0.168,-0.767 0.04,-0.197 0.073,-0.396 0.102,-0.596 0.008,0.181 0.012,0.361 0.011,0.541 z m -0.263,4.212 c -0.032,0.088 -0.065,0.176 -0.099,0.263 -0.186,0.134 -0.37,0.268 -0.554,0.403 0.154,-0.413 0.268,-0.833 0.409,-1.249 0.008,-0.022 -0.003,-0.047 -0.025,-0.055 -0.022,-0.008 -0.047,0.003 -0.055,0.025 -0.03,0.062 -0.058,0.126 -0.086,0.19 0.111,-0.571 0.201,-1.144 0.274,-1.714 0.005,-0.047 0.011,-0.093 0.016,-0.14 0.289,-0.214 0.579,-0.427 0.87,-0.637 -0.156,0.997 -0.409,1.961 -0.75,2.914 z m -1.724,1.992 c -0.347,0.615 -0.743,1.193 -1.158,1.765 -0.615,0.846 -1.306,1.716 -2.044,2.458 -0.475,0.477 -0.96,0.93 -1.47,1.358 -0.14,0.077 -0.282,0.153 -0.419,0.235 -0.062,0.034 -0.093,0.104 -0.082,0.17 -0.186,0.145 -0.375,0.286 -0.568,0.425 -0.464,0.331 -0.937,0.625 -1.428,0.915 -0.596,0.352 -1.25,0.679 -1.892,0.937 -0.085,0.033 -0.17,0.067 -0.258,0.09 0.76,-0.329 1.459,-0.761 2.128,-1.225 0.196,-0.138 0.393,-0.278 0.587,-0.421 0.01,-0.003 0.02,-0.008 0.03,-0.014 0.261,-0.174 0.523,-0.341 0.782,-0.519 0.119,-0.082 0.233,-0.174 0.352,-0.257 0.214,-0.149 0.418,-0.327 0.622,-0.49 0.569,-0.455 1.115,-0.986 1.616,-1.515 1.333,-1.407 2.528,-3.164 3.361,-4.913 0.203,-0.427 0.388,-0.848 0.565,-1.279 -0.193,0.769 -0.444,1.555 -0.724,2.28 z m 0.814,0.007 c -0.045,0.087 -0.101,0.17 -0.148,0.256 -0.044,0.08 -0.089,0.16 -0.136,0.24 0.191,-0.541 0.353,-1.092 0.48,-1.656 0.181,-0.133 0.362,-0.265 0.543,-0.397 -0.218,0.532 -0.475,1.049 -0.739,1.557 z m -29.875,0.584 c -0.057,0.057 -0.114,0.114 -0.171,0.172 -0.122,-0.241 -0.241,-0.48 -0.356,-0.726 -0.173,-0.369 -0.328,-0.768 -0.462,-1.168 0.122,-0.088 0.247,-0.173 0.369,-0.261 0.148,0.679 0.358,1.341 0.62,1.983 z m 40.319,-1.673 c -0.137,0.112 -0.275,0.224 -0.413,0.337 0.009,-0.052 0.019,-0.103 0.031,-0.152 0.029,-0.125 -0.012,-0.232 -0.084,-0.305 0.154,0.041 0.31,0.081 0.466,0.12 z m 2.197,0.461 c 0.042,0.007 0.085,0.015 0.128,0.022 -0.231,0.011 -0.464,0.017 -0.693,0.041 -0.58,0.058 -1.169,0.125 -1.744,0.219 -0.037,0.006 -0.075,0.011 -0.113,0.017 0.098,-0.079 0.197,-0.159 0.296,-0.237 0.161,-0.131 0.322,-0.261 0.484,-0.392 0.546,0.123 1.099,0.232 1.642,0.33 z m -41.34,3.456 c -0.004,-0.006 -0.006,-0.008 -0.007,-0.01 -0.246,-0.321 -0.526,-0.652 -0.732,-1.001 -0.143,-0.242 -0.308,-0.476 -0.437,-0.727 -0.022,-0.043 -0.044,-0.085 -0.065,-0.127 0.055,-0.05 0.111,-0.101 0.167,-0.152 0,-0.001 0.001,-0.002 0.022,-0.02 0.312,0.791 0.659,1.427 1.052,2.037 z M 22.252,45.275 C 22.24,45.25 22.228,45.225 22.217,45.2 c 0.011,0.025 0.023,0.05 0.035,0.075 z m 0.208,0.417 c 0.142,0.277 0.291,0.569 0.459,0.836 -0.017,-0.022 -0.031,-0.046 -0.045,-0.07 -0.114,-0.194 -0.238,-0.393 -0.337,-0.595 -0.069,-0.142 -0.138,-0.28 -0.205,-0.419 l 0.002,-0.002 c 0.042,0.084 0.084,0.168 0.126,0.25 z m 1.495,1.632 c -0.019,0.028 -0.038,0.056 -0.055,0.085 -0.023,0.032 -0.015,0.078 0.017,0.101 0.032,0.023 0.078,0.015 0.101,-0.017 0.011,-0.019 0.024,-0.038 0.036,-0.057 0.079,0.088 0.159,0.176 0.241,0.262 0.36,0.378 0.757,0.749 1.175,1.087 -0.127,0.174 -0.249,0.354 -0.352,0.534 -0.304,-0.31 -0.615,-0.62 -0.887,-0.957 C 24.1,48.2 23.957,48.04 23.832,47.873 c -0.12,-0.161 -0.237,-0.321 -0.351,-0.482 0.023,0.007 0.049,0.006 0.073,-0.006 0.046,-0.024 0.063,-0.083 0.039,-0.129 -0.147,-0.307 -0.283,-0.616 -0.412,-0.928 0.24,0.346 0.498,0.678 0.774,0.996 z m 27.101,-0.848 c -0.005,0.011 -0.01,0.022 -0.014,0.033 -0.094,0.101 -0.19,0.2 -0.279,0.303 -0.026,0.029 -0.053,0.059 -0.088,0.085 0.038,-0.045 0.076,-0.089 0.099,-0.144 0.123,-0.116 0.225,-0.248 0.325,-0.382 -0.014,0.035 -0.029,0.07 -0.043,0.105 z m -8.321,1.735 c -0.29,0.274 -0.586,0.541 -0.87,0.823 -0.82,0.813 -1.559,1.7 -2.326,2.561 -0.384,0.431 -0.772,0.86 -1.156,1.291 -0.063,0.069 -0.058,0.178 0.011,0.241 0.069,0.063 0.178,0.058 0.241,-0.011 0.594,-0.665 1.203,-1.318 1.8,-1.981 0.662,-0.734 1.347,-1.444 2.086,-2.1 0.304,-0.27 0.617,-0.552 0.946,-0.791 0.106,-0.087 0.122,-0.245 0.035,-0.351 -0.087,-0.106 -0.245,-0.122 -0.351,-0.035 -0.136,0.118 -0.286,0.23 -0.416,0.353 z m 18.15,2.216 c -0.021,0.018 -0.043,0.036 -0.064,0.054 -0.041,-0.027 -0.082,-0.053 -0.123,-0.079 -0.005,-0.003 -0.009,-0.006 -0.013,-0.009 0.036,-0.06 0.071,-0.121 0.106,-0.182 0.03,0.07 0.061,0.142 0.094,0.216 z M 42,52.136 c -0.016,0.009 -0.032,0.018 -0.047,0.027 0.049,-0.049 0.098,-0.098 0.134,-0.135 -0.021,0.027 -0.054,0.067 -0.087,0.108 z m 17.571,2.563 c -0.448,0.402 -0.906,0.795 -1.354,1.196 -0.058,0.05 -0.064,0.14 -0.014,0.198 0.05,0.058 0.14,0.064 0.198,0.014 0.447,-0.4 0.91,-0.79 1.37,-1.174 0.45,-0.376 0.891,-0.734 1.366,-1.077 0.176,-0.127 0.362,-0.256 0.545,-0.374 0.16,-0.103 0.332,-0.195 0.494,-0.296 0.102,-0.064 0.132,-0.2 0.068,-0.302 -0.064,-0.102 -0.2,-0.132 -0.302,-0.068 -0.85,0.537 -1.625,1.213 -2.371,1.883 z m -6.698,6.12 c 0.056,0.043 0.12,0.079 0.176,0.123 0.109,0.086 0.214,0.173 0.322,0.259 0.166,0.132 0.365,0.34 0.51,0.497 0.498,0.542 0.962,1.115 1.425,1.688 0.149,0.184 0.309,0.371 0.478,0.554 -0.012,-0.007 -0.024,-0.014 -0.035,-0.02 -0.197,-0.115 -0.392,-0.234 -0.586,-0.357 -0.353,-0.374 -0.694,-0.779 -1.031,-1.166 -0.222,-0.254 -0.44,-0.511 -0.665,-0.763 -0.108,-0.121 -0.213,-0.253 -0.328,-0.367 -0.244,-0.242 -0.499,-0.488 -0.759,-0.729 0.175,0.079 0.347,0.168 0.493,0.281 z m -41.404,1.408 c 0.633,0.601 1.277,1.179 1.952,1.722 0.097,0.093 0.193,0.184 0.291,0.274 0.427,0.394 0.884,0.793 1.356,1.162 -0.338,-0.164 -0.661,-0.346 -0.982,-0.547 -0.363,-0.227 -0.712,-0.454 -1.053,-0.715 -1.304,-0.999 -2.417,-2.286 -3.29,-3.688 0.552,0.62 1.12,1.216 1.726,1.792 z m 49.919,1.07 c -0.126,0.131 -0.244,0.273 -0.372,0.402 -0.525,0.531 -1.1,1.1 -1.786,1.413 -0.068,0.031 -0.128,0.048 -0.189,0.061 l -0.156,0.031 -0.19,-0.022 c 0.949,-0.648 1.883,-1.319 2.806,-2.01 -0.037,0.043 -0.075,0.084 -0.113,0.125 z m -31.486,2.11 c -0.006,0.209 -0.01,0.418 -0.013,0.629 -0.034,-0.396 -0.058,-0.79 -0.023,-1.183 0.005,-0.286 0.026,-0.647 0.069,-1.003 -0.009,0.525 -0.02,1.041 -0.033,1.557 z m 14.322,2.159 c 0.012,0.604 0.006,1.204 0.001,1.807 -0.007,0.784 -0.099,1.567 -0.185,2.345 l -0.044,0.257 -0.357,0.045 C 43.623,71.756 43.394,71.554 43.13,71.57 h -0.009 c 0.016,-0.034 0.025,-0.072 0.026,-0.112 -10e-4,-0.04 -10e-4,-0.08 0,-0.119 0.067,0.062 0.154,0.105 0.252,0.118 0.251,0.033 0.483,-0.145 0.516,-0.396 0.086,-0.947 0.17,-1.888 0.221,-2.839 0.037,-0.709 0.037,-1.418 0.032,-2.127 0.005,-0.023 0.01,-0.045 0.016,-0.067 0.014,0.513 0.03,1.026 0.04,1.538 z m -9.077,5.166 c -0.153,0.012 -0.305,0.022 -0.453,0.029 -0.193,0.008 -0.381,0.015 -0.553,-0.036 0.336,0.006 0.671,0.007 1.006,0.007 z"
           stroke-miterlimit="79.8403193612775"
           id="path889"
           inkscape:connector-curvature="0"
           style="fill:#000000;fill-rule:evenodd;stroke:none;stroke-width:0.5;stroke-miterlimit:79.84031677;marker-start:none;marker-end:none" />
      </g>
    </g>
  </g>
</svg>
